<?xml version="1.0" encoding="UTF-8" standalone="no"?>
<!-- Created with Inkscape (http://www.inkscape.org/) -->

<svg
   width="512"
   height="512"
   viewBox="0 0 512 512"
   version="1.1"
   id="svg5"
   xml:space="preserve"
   inkscape:version="1.2.2 (732a01da63, 2022-12-09, custom)"
   sodipodi:docname="kicad6_linuxmx"
   xmlns:inkscape="http://www.inkscape.org/namespaces/inkscape"
   xmlns:sodipodi="http://sodipodi.sourceforge.net/DTD/sodipodi-0.dtd"
   xmlns="http://www.w3.org/2000/svg"
   xmlns:svg="http://www.w3.org/2000/svg"><sodipodi:namedview
     id="namedview7"
     pagecolor="#ffffff"
     bordercolor="#000000"
     borderopacity="0.25"
     inkscape:showpageshadow="2"
     inkscape:pageopacity="0.0"
     inkscape:pagecheckerboard="0"
     inkscape:deskcolor="#d1d1d1"
     inkscape:document-units="px"
     showgrid="false"
     inkscape:zoom="0.91209597"
     inkscape:cx="162.26363"
     inkscape:cy="310.82255"
     inkscape:window-width="1920"
     inkscape:window-height="1027"
     inkscape:window-x="0"
     inkscape:window-y="0"
     inkscape:window-maximized="1"
     inkscape:current-layer="layer1" /><defs
     id="defs2" /><g
     inkscape:label="Layer 1"
     inkscape:groupmode="layer"
     id="layer1"><g
       id="g4253"
       transform="matrix(1.4139493,0,0,1.4139493,110.00975,-1091.2124)"><rect
         ry="17.040359"
         y="790.25458"
         x="26.233185"
         height="224.21524"
         width="247.53363"
         id="rect4234"
         style="color:#000000;clip-rule:nonzero;display:inline;overflow:visible;visibility:visible;opacity:1;isolation:auto;mix-blend-mode:normal;color-interpolation:sRGB;color-interpolation-filters:linearRGB;solid-color:#000000;solid-opacity:1;fill:#ffffff;fill-opacity:1;fill-rule:nonzero;stroke:#ffffff;stroke-width:0;stroke-linecap:round;stroke-linejoin:round;stroke-miterlimit:4;stroke-dasharray:none;stroke-dashoffset:0;stroke-opacity:1;color-rendering:auto;image-rendering:auto;shape-rendering:auto;text-rendering:auto;enable-background:accumulate" /><rect
         ry="11.522169"
         y="797.2345"
         x="33.443947"
         height="209.35854"
         width="233.11211"
         id="rect4234-3"
         style="color:#000000;clip-rule:nonzero;display:inline;overflow:visible;visibility:visible;opacity:1;isolation:auto;mix-blend-mode:normal;color-interpolation:sRGB;color-interpolation-filters:linearRGB;solid-color:#000000;solid-opacity:1;fill:#000000;fill-opacity:1;fill-rule:nonzero;stroke:#ffffff;stroke-width:0;stroke-linecap:round;stroke-linejoin:round;stroke-miterlimit:4;stroke-dasharray:none;stroke-dashoffset:0;stroke-opacity:1;color-rendering:auto;image-rendering:auto;shape-rendering:auto;text-rendering:auto;enable-background:accumulate" /><path
         inkscape:connector-curvature="0"
         id="path3417-0"
         d="m 202.73892,829.9786 -46.22749,53.89687 -46.07728,-53.68684 -18.903811,16.22726 48.567701,56.59143 -7.09341,8.26967 L 120.96628,897.04813 88.09162,935.9 55.210992,974.7458 h 65.755288 41.63644 24.11886 16.97129 41.09614 l -20.54822,-24.683 -20.54792,-24.68298 -5.68888,6.8354 -31.57845,-36.79341 47.73367,-55.64924 z m -52.72678,84.57503 31.82433,37.08753 -7.2735,8.73779 L 153.8406,935.9 142.84663,922.90736 Z"
         style="fill:#ffffff;fill-rule:evenodd;stroke:#000000;stroke-width:0;stroke-linecap:butt;stroke-linejoin:miter;stroke-miterlimit:4;stroke-dasharray:none;stroke-opacity:1" /></g><g
       inkscape:label="Layer 1"
       id="layer1-6"
       transform="matrix(2.064521,0,0,2.064521,-73.794536,-1614.8943)"><path
         inkscape:connector-curvature="0"
         style="fill:#314cb0;fill-opacity:1;fill-rule:nonzero;stroke:#1d2d68;stroke-width:4.85049;stroke-miterlimit:4;stroke-opacity:1"
         d="M 51.678648,901.97614 H 166.07062 c 0.51273,0 0.9255,0.43179 0.9255,0.96814 v 109.79552 c 0,0.5364 -0.41277,0.9682 -0.9255,0.9682 H 51.678648 c -0.512727,0 -0.925501,-0.4318 -0.925501,-0.9682 V 902.94428 c 0,-0.53635 0.412774,-0.96814 0.925501,-0.96814 z"
         id="rect3438-4-1-6-9-8-4" /><path
         inkscape:connector-curvature="0"
         id="path3008"
         style="font-style:normal;font-weight:normal;font-size:120.794px;line-height:122%;font-family:Sans;letter-spacing:0px;word-spacing:0px;fill:#ffffff;fill-opacity:1;stroke:none"
         d="m 80.269477,948.26032 16.927605,-21.41018 c 3.460178,-4.36453 5.190288,-7.62815 5.190348,-9.79088 -6e-5,-0.78633 -0.0984,-1.41546 -0.29491,-1.8874 h 29.54958 c -2.24136,1.25835 -5.0528,3.91251 -8.43431,7.96246 -0.90445,1.06175 -2.49694,3.00812 -4.77747,5.83914 l -22.176937,27.60321 26.482557,36.45038 c 1.61208,2.20197 3.65676,4.67918 6.13405,7.43165 0.66837,0.7078 1.63173,1.5532 2.89008,2.5362 h -30.31634 c 0.23587,-0.9044 0.35383,-1.7105 0.35389,-2.4183 -6e-5,-2.1626 -1.49425,-5.2886 -4.482575,-9.37797 L 80.269477,967.96004 v 23.5335 c -3.2e-5,5.4656 1.100949,9.29936 3.302948,11.50136 H 55.851259 c 1.533502,-1.5335 2.516521,-3.28331 2.949061,-5.24935 0.235913,-1.10098 0.353875,-3.16532 0.353887,-6.19303 v -64.9383 c -1.2e-5,-3.02763 -0.117974,-5.09197 -0.353887,-6.19303 -0.43254,-1.96596 -1.415559,-3.71573 -2.949061,-5.24933 h 27.721166 c -2.201999,2.20205 -3.30298,6.01617 -3.302948,11.44236 v 21.6461" /><path
         inkscape:connector-curvature="0"
         id="path3010"
         style="font-style:normal;font-weight:normal;font-size:120.794px;line-height:122%;font-family:Sans;letter-spacing:0px;word-spacing:0px;fill:#ffffff;fill-opacity:1;stroke:none"
         d="m 159.48123,938.46944 v 54.14474 c -3e-5,2.83111 0.0786,4.67918 0.23593,5.54423 0.31453,1.76944 1.14027,3.38159 2.47721,4.83649 h -25.95173 c 1.3369,-1.4549 2.16263,-3.06705 2.47721,-4.83649 0.15727,-0.86505 0.23591,-2.71312 0.23592,-5.54423 v -43.88201 c -1e-5,-2.83104 -0.0787,-4.65946 -0.23592,-5.48526 -0.31458,-1.73005 -1.12065,-3.32254 -2.41823,-4.77747 h 23.17961 M 149.2185,907.62227 c 3.26361,9e-5 6.03572,1.16006 8.31635,3.47989 2.3199,2.2807 3.47986,5.05281 3.47989,8.31635 -3e-5,3.34235 -1.14033,6.15378 -3.42091,8.43431 -2.24131,2.24136 -5.03308,3.362 -8.37533,3.36193 -3.26364,7e-5 -6.05541,-1.14023 -8.37533,-3.42091 -2.28061,-2.31985 -3.42092,-5.11162 -3.42091,-8.37533 -1e-5,-3.34218 1.12064,-6.13396 3.36193,-8.37533 2.28059,-2.28051 5.09203,-3.42082 8.43431,-3.42091" /><path
         inkscape:connector-curvature="0"
         style="fill:#314cb0;fill-opacity:1;fill-rule:nonzero;stroke:none"
         d="m 135.29004,906.65179 h 28.31517 v 27.03082 h -28.31517 z"
         id="rect4352-5-1" /><path
         inkscape:connector-curvature="0"
         style="fill:#ff7700;fill-opacity:1;fill-rule:nonzero;stroke:none"
         d="m 161.16831,902.00507 c 0,6.60244 -5.36817,11.95472 -11.99015,11.95472 -6.62197,0 -11.99015,-5.35228 -11.99015,-11.95472 0,-6.60244 5.36818,-11.9548 11.99015,-11.9548 6.62198,0 11.99015,5.35236 11.99015,11.9548 z"
         id="path3552-6-3-7" /></g></g></svg>
