<?xml version="1.0" encoding="UTF-8" standalone="no"?>
<!-- Created with Inkscape (http://www.inkscape.org/) -->

<svg
   width="512"
   height="512"
   viewBox="0 0 512 512"
   version="1.1"
   id="svg5"
   xml:space="preserve"
   inkscape:version="1.2.2 (732a01da63, 2022-12-09, custom)"
   sodipodi:docname="latex_gitlab"
   xmlns:inkscape="http://www.inkscape.org/namespaces/inkscape"
   xmlns:sodipodi="http://sodipodi.sourceforge.net/DTD/sodipodi-0.dtd"
   xmlns:xlink="http://www.w3.org/1999/xlink"
   xmlns="http://www.w3.org/2000/svg"
   xmlns:svg="http://www.w3.org/2000/svg"
   xmlns:ns0="http://www.iki.fi/pav/software/textext/"
   xmlns:sketch="http://www.bohemiancoding.com/sketch/ns"><sodipodi:namedview
     id="namedview7"
     pagecolor="#ffffff"
     bordercolor="#000000"
     borderopacity="0.25"
     inkscape:showpageshadow="2"
     inkscape:pageopacity="0.0"
     inkscape:pagecheckerboard="0"
     inkscape:deskcolor="#d1d1d1"
     inkscape:document-units="px"
     showgrid="false"
     inkscape:zoom="0.91209597"
     inkscape:cx="-275.73853"
     inkscape:cy="55.36698"
     inkscape:window-width="1920"
     inkscape:window-height="1027"
     inkscape:window-x="0"
     inkscape:window-y="0"
     inkscape:window-maximized="1"
     inkscape:current-layer="g3024" /><defs
     id="defs2"><marker
       inkscape:stockid="Arrow1Mend"
       orient="auto"
       refY="0"
       refX="0"
       id="Arrow1Mend"
       style="overflow:visible"><path
         id="path4075"
         d="M 0,0 5,-5 -12.5,0 5,5 0,0 z"
         style="fill-rule:evenodd;stroke:#000000;stroke-width:1pt;marker-start:none"
         transform="matrix(-0.4,0,0,-0.4,-4,0)" /></marker><marker
       inkscape:stockid="Arrow2Mend"
       orient="auto"
       refY="0"
       refX="0"
       id="Arrow2Mend"
       style="overflow:visible"><path
         id="path4093"
         style="font-size:12px;fill-rule:evenodd;stroke-width:0.625;stroke-linejoin:round"
         d="M 8.7185878,4.0337352 -2.2072895,0.01601326 8.7185884,-4.0017078 c -1.7454984,2.3720609 -1.7354408,5.6174519 -6e-7,8.035443 z"
         transform="scale(-0.6,-0.6)" /></marker><marker
       inkscape:stockid="Arrow1Send"
       orient="auto"
       refY="0"
       refX="0"
       id="Arrow1Send"
       style="overflow:visible"><path
         id="path4081"
         d="M 0,0 5,-5 -12.5,0 5,5 0,0 z"
         style="fill-rule:evenodd;stroke:#000000;stroke-width:1pt;marker-start:none"
         transform="matrix(-0.2,0,0,-0.2,-1.2,0)" /></marker><inkscape:perspective
       sodipodi:type="inkscape:persp3d"
       inkscape:vp_x="0 : 526.18109 : 1"
       inkscape:vp_y="0 : 1000 : 0"
       inkscape:vp_z="744.09448 : 526.18109 : 1"
       inkscape:persp3d-origin="372.04724 : 350.78739 : 1"
       id="perspective10" /><g
       id="g3171"><symbol
         id="textext-204e4e81-0"
         overflow="visible"
         style="overflow:visible"><path
           id="path3174"
           d=""
           style="stroke:none" /></symbol><symbol
         id="textext-204e4e81-1"
         overflow="visible"
         style="overflow:visible"><path
           id="path3177"
           d="m 5.796875,-2.578125 -0.25,0 c -0.109375,1.015625 -0.25,2.265625 -2,2.265625 l -0.8125,0 C 2.265625,-0.3125 2.25,-0.375 2.25,-0.703125 l 0,-5.3125 C 2.25,-6.359375 2.25,-6.5 3.1875,-6.5 l 0.328125,0 0,-0.3125 C 3.15625,-6.78125 2.25,-6.78125 1.84375,-6.78125 c -0.390625,0 -1.171875,0 -1.515625,-0.03125 l 0,0.3125 0.234375,0 c 0.765625,0 0.796875,0.109375 0.796875,0.46875 l 0,5.25 c 0,0.359375 -0.03125,0.46875 -0.796875,0.46875 l -0.234375,0 0,0.3125 5.1875,0 0.28125,-2.578125 z m 0,0"
           style="stroke:none" /></symbol><symbol
         id="textext-204e4e81-2"
         overflow="visible"
         style="overflow:visible"><path
           id="path3180"
           d="m 6.640625,-6.75 -6.09375,0 -0.1875,2.25 0.25,0 C 0.75,-6.109375 0.890625,-6.4375 2.40625,-6.4375 c 0.171875,0 0.4375,0 0.53125,0.015625 0.21875,0.046875 0.21875,0.15625 0.21875,0.375 l 0,5.265625 c 0,0.328125 0,0.46875 -1.046875,0.46875 l -0.40625,0 0,0.3125 C 2.109375,-0.03125 3.125,-0.03125 3.59375,-0.03125 c 0.453125,0 1.484375,0 1.890625,0.03125 l 0,-0.3125 -0.40625,0 c -1.046875,0 -1.046875,-0.140625 -1.046875,-0.46875 l 0,-5.265625 c 0,-0.1875 0,-0.328125 0.1875,-0.375 0.109375,-0.015625 0.375,-0.015625 0.5625,-0.015625 1.515625,0 1.65625,0.328125 1.796875,1.9375 l 0.25,0 -0.1875,-2.25 z m 0,0"
           style="stroke:none" /></symbol><symbol
         id="textext-204e4e81-3"
         overflow="visible"
         style="overflow:visible"><path
           id="path3183"
           d="m 6.5,-2.578125 -0.25,0 C 6,-1.03125 5.765625,-0.3125 4.0625,-0.3125 l -1.328125,0 C 2.265625,-0.3125 2.25,-0.375 2.25,-0.703125 l 0,-2.671875 0.890625,0 c 0.96875,0 1.078125,0.328125 1.078125,1.171875 l 0.25,0 0,-2.640625 -0.25,0 c 0,0.859375 -0.109375,1.171875 -1.078125,1.171875 l -0.890625,0 0,-2.40625 c 0,-0.328125 0.015625,-0.390625 0.484375,-0.390625 l 1.28125,0 c 1.53125,0 1.796875,0.546875 1.953125,1.9375 l 0.25,0 -0.28125,-2.25 -5.609375,0 0,0.3125 0.234375,0 c 0.765625,0 0.796875,0.109375 0.796875,0.46875 l 0,5.21875 c 0,0.359375 -0.03125,0.46875 -0.796875,0.46875 l -0.234375,0 0,0.3125 5.75,0 L 6.5,-2.578125 z m 0,0"
           style="stroke:none" /></symbol><symbol
         id="textext-204e4e81-4"
         overflow="visible"
         style="overflow:visible"><path
           id="path3186"
           d="m 4,-3.84375 1.375,-2.015625 c 0.21875,-0.3125 0.5625,-0.625 1.4375,-0.640625 l 0,-0.3125 c -0.375,0.015625 -0.84375,0.03125 -1.09375,0.03125 -0.40625,0 -0.890625,0 -1.28125,-0.03125 l 0,0.3125 c 0.390625,0.015625 0.609375,0.234375 0.609375,0.453125 0,0.109375 -0.015625,0.125 -0.078125,0.234375 L 3.828125,-4.125 2.546875,-6.046875 C 2.515625,-6.078125 2.46875,-6.15625 2.46875,-6.203125 2.46875,-6.3125 2.6875,-6.484375 3.125,-6.5 l 0,-0.3125 c -0.359375,0.03125 -1.078125,0.03125 -1.453125,0.03125 -0.3125,0 -0.9375,0 -1.296875,-0.03125 l 0,0.3125 0.1875,0 c 0.546875,0 0.734375,0.0625 0.921875,0.34375 L 3.3125,-3.375 1.6875,-0.96875 C 1.546875,-0.765625 1.25,-0.3125 0.234375,-0.3125 l 0,0.3125 c 0.359375,-0.015625 0.78125,-0.03125 1.109375,-0.03125 0.375,0 0.921875,0 1.28125,0.03125 l 0,-0.3125 C 2.15625,-0.3125 2,-0.59375 2,-0.765625 2,-0.859375 2.03125,-0.890625 2.09375,-1 l 1.421875,-2.09375 1.5625,2.375 c 0.03125,0.046875 0.0625,0.078125 0.0625,0.109375 0,0.125 -0.21875,0.296875 -0.65625,0.296875 l 0,0.3125 C 4.828125,-0.03125 5.5625,-0.03125 5.9375,-0.03125 c 0.421875,0 0.875,0.015625 1.296875,0.03125 l 0,-0.3125 -0.1875,0 c -0.515625,0 -0.734375,-0.046875 -0.9375,-0.359375 L 4,-3.84375 z m 0,0"
           style="stroke:none" /></symbol><symbol
         id="textext-204e4e81-5"
         overflow="visible"
         style="overflow:visible"><path
           id="path3189"
           d=""
           style="stroke:none" /></symbol><symbol
         id="textext-204e4e81-6"
         overflow="visible"
         style="overflow:visible"><path
           id="path3192"
           d="M 3.125,-4.8125 C 3.09375,-4.921875 3.0625,-4.96875 2.9375,-4.96875 c -0.140625,0 -0.15625,0.046875 -0.203125,0.15625 L 1.125,-0.734375 C 1.0625,-0.5625 0.9375,-0.25 0.3125,-0.25 l 0,0.25 C 0.546875,-0.015625 0.796875,-0.03125 1.03125,-0.03125 1.3125,-0.03125 1.828125,0 1.875,0 l 0,-0.25 c -0.3125,0 -0.515625,-0.140625 -0.515625,-0.328125 0,-0.0625 0.015625,-0.078125 0.046875,-0.140625 l 0.328125,-0.859375 1.984375,0 L 4.125,-0.5625 c 0,0.03125 0.03125,0.078125 0.03125,0.109375 0,0.203125 -0.375,0.203125 -0.5625,0.203125 l 0,0.25 C 3.9375,-0.015625 4.390625,-0.03125 4.625,-0.03125 4.953125,-0.03125 5.484375,0 5.546875,0 l 0,-0.25 -0.125,0 c -0.46875,0 -0.515625,-0.078125 -0.59375,-0.265625 L 3.125,-4.8125 z m -0.40625,0.71875 0.890625,2.265625 -1.78125,0 0.890625,-2.265625 z m 0,0"
           style="stroke:none" /></symbol></g><g
       id="g3028"><symbol
         overflow="visible"
         id="textext-e61a4101-0"
         style="overflow:visible"><path
           style="stroke:none"
           d=""
           id="path3031" /></symbol><symbol
         overflow="visible"
         id="textext-e61a4101-1"
         style="overflow:visible"><path
           style="stroke:none"
           d="m 2.828125,-5.609375 c 0,-0.71875 0,-0.9375 0.234375,-1.1875 C 3.234375,-6.984375 3.46875,-7.21875 4.171875,-7.25 4.21875,-7.265625 4.25,-7.3125 4.25,-7.359375 c 0,-0.125 -0.078125,-0.125 -0.1875,-0.125 -1,0 -1.890625,0.515625 -1.90625,1.234375 l 0,1.828125 c 0,0.9375 0,1.09375 -0.265625,1.375 -0.140625,0.140625 -0.40625,0.40625 -1.03125,0.4375 -0.078125,0 -0.140625,0.015625 -0.140625,0.109375 0,0.109375 0.0625,0.109375 0.15625,0.125 0.4375,0.015625 1.28125,0.234375 1.28125,1.234375 l 0,1.96875 c 0,0.578125 0,0.921875 0.515625,1.28125 C 3.09375,2.40625 3.75,2.5 4.0625,2.5 4.171875,2.5 4.25,2.5 4.25,2.375 4.25,2.28125 4.203125,2.28125 4.09375,2.265625 3.3125,2.21875 2.9375,1.78125 2.84375,1.421875 2.828125,1.3125 2.828125,1.28125 2.828125,0.9375 l 0,-1.5 c 0,-0.296875 0,-0.796875 -0.03125,-0.90625 C 2.671875,-2.125 2.03125,-2.375 1.640625,-2.5 c 1.1875,-0.328125 1.1875,-1.03125 1.1875,-1.3125 l 0,-1.796875 z m 0,0"
           id="path3034" /></symbol><symbol
         overflow="visible"
         id="textext-e61a4101-2"
         style="overflow:visible"><path
           style="stroke:none"
           d="M 4,2.265625 C 4.03125,2.375 4.078125,2.5 4.21875,2.5 c 0.109375,0 0.203125,-0.09375 0.203125,-0.203125 0,-0.03125 0,-0.046875 -0.0625,-0.1875 L 0.984375,-7.25 C 0.9375,-7.359375 0.890625,-7.484375 0.75,-7.484375 c -0.109375,0 -0.1875,0.09375 -0.1875,0.203125 0,0.03125 0,0.046875 0.046875,0.1875 L 4,2.265625 z m 0,0"
           id="path3037" /></symbol><symbol
         overflow="visible"
         id="textext-e61a4101-3"
         style="overflow:visible"><path
           style="stroke:none"
           d="m 2.828125,-5.8125 c 0,-0.578125 0,-0.921875 -0.53125,-1.28125 -0.421875,-0.296875 -1.0625,-0.390625 -1.375,-0.390625 -0.109375,0 -0.203125,0 -0.203125,0.125 0,0.09375 0.0625,0.09375 0.15625,0.109375 0.796875,0.046875 1.15625,0.484375 1.25,0.84375 0.03125,0.109375 0.03125,0.140625 0.03125,0.484375 l 0,1.5 c 0,0.296875 0,0.796875 0.015625,0.90625 0.125,0.65625 0.765625,0.90625 1.15625,1.015625 C 2.15625,-2.15625 2.15625,-1.453125 2.15625,-1.171875 l 0,1.796875 c 0,0.71875 0,0.9375 -0.25,1.1875 C 1.734375,2 1.5,2.234375 0.8125,2.265625 0.75,2.28125 0.71875,2.328125 0.71875,2.375 0.71875,2.5 0.8125,2.5 0.921875,2.5 c 0.984375,0 1.875,-0.515625 1.90625,-1.234375 l 0,-1.828125 c 0,-0.9375 0,-1.09375 0.25,-1.375 C 3.21875,-2.078125 3.484375,-2.34375 4.109375,-2.375 4.1875,-2.375 4.25,-2.390625 4.25,-2.5 4.25,-2.59375 4.203125,-2.59375 4.09375,-2.609375 3.671875,-2.625 2.828125,-2.84375 2.828125,-3.84375 l 0,-1.96875 z m 0,0"
           id="path3040" /></symbol><symbol
         overflow="visible"
         id="textext-e61a4101-4"
         style="overflow:visible"><path
           style="stroke:none"
           d=""
           id="path3043" /></symbol><symbol
         overflow="visible"
         id="textext-e61a4101-5"
         style="overflow:visible"><path
           style="stroke:none"
           d="m 1.78125,-5.484375 0.546875,0 c 0.140625,0 0.40625,0 0.40625,-0.296875 0,-0.3125 -0.25,-0.3125 -0.40625,-0.3125 l -1.609375,0 c -0.15625,0 -0.40625,0 -0.40625,0.3125 0,0.296875 0.25,0.296875 0.40625,0.296875 l 0.375,0 0,4.875 -0.375,0 c -0.15625,0 -0.40625,0 -0.40625,0.3125 C 0.3125,0 0.5625,0 0.71875,0 l 3.75,0 c 0.328125,0 0.390625,-0.09375 0.390625,-0.40625 l 0,-0.890625 c 0,-0.203125 0,-0.40625 -0.328125,-0.40625 -0.359375,0 -0.359375,0.203125 -0.359375,0.40625 l 0,0.6875 -2.390625,0 0,-4.875 z m 0,0"
           id="path3046" /></symbol><symbol
         overflow="visible"
         id="textext-e61a4101-6"
         style="overflow:visible"><path
           style="stroke:none"
           d="M 3.65625,-0.3125 C 3.875,-0.015625 4.34375,0 4.71875,0 c 0.28125,0 0.5,0 0.5,-0.3125 0,-0.296875 -0.25,-0.296875 -0.390625,-0.296875 -0.421875,0 -0.515625,-0.046875 -0.59375,-0.078125 l 0,-2.15625 c 0,-0.703125 -0.546875,-1.546875 -1.984375,-1.546875 -0.421875,0 -1.4375,0 -1.4375,0.734375 0,0.296875 0.203125,0.453125 0.4375,0.453125 0.15625,0 0.4375,-0.09375 0.4375,-0.453125 0,-0.078125 0.015625,-0.09375 0.21875,-0.109375 0.140625,-0.015625 0.265625,-0.015625 0.359375,-0.015625 0.75,0 1.265625,0.3125 1.265625,1.015625 -1.75,0.03125 -2.984375,0.53125 -2.984375,1.484375 0,0.6875 0.625,1.34375 1.640625,1.34375 0.375,0 1,-0.078125 1.46875,-0.375 z m -0.125,-1.859375 0,0.84375 c 0,0.21875 0,0.4375 -0.375,0.609375 -0.359375,0.171875 -0.8125,0.171875 -0.890625,0.171875 -0.625,0 -1.03125,-0.34375 -1.03125,-0.734375 0,-0.484375 0.859375,-0.859375 2.296875,-0.890625 z m 0,0"
           id="path3049" /></symbol><symbol
         overflow="visible"
         id="textext-e61a4101-7"
         style="overflow:visible"><path
           style="stroke:none"
           d="m 2.953125,-5.484375 1.328125,0 0,0.53125 c 0,0.1875 0,0.40625 0.328125,0.40625 0.359375,0 0.359375,-0.203125 0.359375,-0.40625 l 0,-0.734375 c 0,-0.296875 -0.0625,-0.40625 -0.40625,-0.40625 l -3.890625,0 c -0.328125,0 -0.40625,0.078125 -0.40625,0.40625 l 0,0.734375 c 0,0.1875 0,0.40625 0.328125,0.40625 0.359375,0 0.359375,-0.203125 0.359375,-0.40625 l 0,-0.53125 1.3125,0 0,4.875 -0.515625,0 c -0.140625,0 -0.390625,0 -0.390625,0.296875 C 1.359375,0 1.59375,0 1.75,0 L 3.484375,0 C 3.625,0 3.875,0 3.875,-0.296875 c 0,-0.3125 -0.234375,-0.3125 -0.390625,-0.3125 l -0.53125,0 0,-4.875 z m 0,0"
           id="path3052" /></symbol><symbol
         overflow="visible"
         id="textext-e61a4101-8"
         style="overflow:visible"><path
           style="stroke:none"
           d="m 4.234375,-1.90625 c 0.203125,0 0.390625,0 0.390625,-0.359375 0,-1.140625 -0.640625,-2.125 -1.9375,-2.125 -1.1875,0 -2.140625,1 -2.140625,2.234375 0,1.203125 1.015625,2.21875 2.296875,2.21875 1.3125,0 1.78125,-0.90625 1.78125,-1.15625 0,-0.265625 -0.28125,-0.265625 -0.34375,-0.265625 -0.1875,0 -0.265625,0.03125 -0.328125,0.21875 -0.21875,0.5 -0.765625,0.59375 -1.046875,0.59375 -0.75,0 -1.484375,-0.5 -1.65625,-1.359375 l 2.984375,0 z M 1.265625,-2.5 C 1.40625,-3.234375 2,-3.78125 2.6875,-3.78125 c 0.515625,0 1.140625,0.25 1.234375,1.28125 l -2.65625,0 z m 0,0"
           id="path3055" /></symbol><symbol
         overflow="visible"
         id="textext-e61a4101-9"
         style="overflow:visible"><path
           style="stroke:none"
           d="m 2.90625,-3.25 1.125,-2.234375 0.21875,0 c 0.140625,0 0.40625,0 0.40625,-0.296875 0,-0.3125 -0.265625,-0.3125 -0.40625,-0.3125 l -1.046875,0 c -0.140625,0 -0.390625,0 -0.390625,0.296875 0,0.3125 0.234375,0.3125 0.453125,0.3125 L 2.5625,-4.03125 1.796875,-5.484375 c 0.203125,0 0.421875,0 0.421875,-0.3125 0,-0.296875 -0.25,-0.296875 -0.390625,-0.296875 l -1.046875,0 c -0.140625,0 -0.40625,0 -0.40625,0.296875 0,0.3125 0.265625,0.3125 0.40625,0.3125 l 0.234375,0 1.203125,2.25 -1.328125,2.625 -0.21875,0 c -0.15625,0 -0.40625,0 -0.40625,0.3125 C 0.265625,0 0.515625,0 0.671875,0 l 1.03125,0 c 0.15625,0 0.40625,0 0.40625,-0.296875 0,-0.3125 -0.234375,-0.3125 -0.46875,-0.3125 l 0.921875,-1.9375 0.984375,1.9375 c -0.234375,0 -0.453125,0 -0.453125,0.3125 C 3.09375,0 3.34375,0 3.5,0 L 4.53125,0 C 4.6875,0 4.9375,0 4.9375,-0.296875 c 0,-0.3125 -0.25,-0.3125 -0.40625,-0.3125 l -0.21875,0 L 2.90625,-3.25 z m 0,0"
           id="path3058" /></symbol></g><g
       id="g654"><symbol
         id="symbol628"
         overflow="visible"
         style="overflow:visible"><path
           id="path626"
           d=""
           style="stroke:none" /></symbol><symbol
         id="symbol632"
         overflow="visible"
         style="overflow:visible"><path
           id="path630"
           d="m 5.796875,-2.578125 h -0.25 c -0.109375,1.015625 -0.25,2.265625 -2,2.265625 h -0.8125 C 2.265625,-0.3125 2.25,-0.375 2.25,-0.703125 v -5.3125 C 2.25,-6.359375 2.25,-6.5 3.1875,-6.5 H 3.515625 V -6.8125 C 3.15625,-6.78125 2.25,-6.78125 1.84375,-6.78125 c -0.390625,0 -1.171875,0 -1.515625,-0.03125 V -6.5 H 0.5625 c 0.765625,0 0.796875,0.109375 0.796875,0.46875 v 5.25 c 0,0.359375 -0.03125,0.46875 -0.796875,0.46875 H 0.328125 V 0 h 5.1875 z m 0,0"
           style="stroke:none" /></symbol><symbol
         id="symbol636"
         overflow="visible"
         style="overflow:visible"><path
           id="path634"
           d="m 6.640625,-6.75 h -6.09375 l -0.1875,2.25 h 0.25 C 0.75,-6.109375 0.890625,-6.4375 2.40625,-6.4375 c 0.171875,0 0.4375,0 0.53125,0.015625 0.21875,0.046875 0.21875,0.15625 0.21875,0.375 v 5.265625 c 0,0.328125 0,0.46875 -1.046875,0.46875 H 1.703125 V 0 C 2.109375,-0.03125 3.125,-0.03125 3.59375,-0.03125 c 0.453125,0 1.484375,0 1.890625,0.03125 v -0.3125 h -0.40625 c -1.046875,0 -1.046875,-0.140625 -1.046875,-0.46875 v -5.265625 c 0,-0.1875 0,-0.328125 0.1875,-0.375 0.109375,-0.015625 0.375,-0.015625 0.5625,-0.015625 1.515625,0 1.65625,0.328125 1.796875,1.9375 h 0.25 z m 0,0"
           style="stroke:none" /></symbol><symbol
         id="symbol640"
         overflow="visible"
         style="overflow:visible"><path
           id="path638"
           d="M 6.5,-2.578125 H 6.25 C 6,-1.03125 5.765625,-0.3125 4.0625,-0.3125 H 2.734375 C 2.265625,-0.3125 2.25,-0.375 2.25,-0.703125 V -3.375 h 0.890625 c 0.96875,0 1.078125,0.328125 1.078125,1.171875 h 0.25 V -4.84375 h -0.25 c 0,0.859375 -0.109375,1.171875 -1.078125,1.171875 H 2.25 v -2.40625 c 0,-0.328125 0.015625,-0.390625 0.484375,-0.390625 h 1.28125 c 1.53125,0 1.796875,0.546875 1.953125,1.9375 h 0.25 l -0.28125,-2.25 H 0.328125 v 0.3125 H 0.5625 c 0.765625,0 0.796875,0.109375 0.796875,0.46875 v 5.21875 c 0,0.359375 -0.03125,0.46875 -0.796875,0.46875 H 0.328125 V 0 h 5.75 z m 0,0"
           style="stroke:none" /></symbol><symbol
         id="symbol644"
         overflow="visible"
         style="overflow:visible"><path
           id="path642"
           d="m 4,-3.84375 1.375,-2.015625 c 0.21875,-0.3125 0.5625,-0.625 1.4375,-0.640625 v -0.3125 c -0.375,0.015625 -0.84375,0.03125 -1.09375,0.03125 -0.40625,0 -0.890625,0 -1.28125,-0.03125 V -6.5 c 0.390625,0.015625 0.609375,0.234375 0.609375,0.453125 0,0.109375 -0.015625,0.125 -0.078125,0.234375 L 3.828125,-4.125 2.546875,-6.046875 C 2.515625,-6.078125 2.46875,-6.15625 2.46875,-6.203125 2.46875,-6.3125 2.6875,-6.484375 3.125,-6.5 v -0.3125 c -0.359375,0.03125 -1.078125,0.03125 -1.453125,0.03125 -0.3125,0 -0.9375,0 -1.296875,-0.03125 V -6.5 h 0.1875 c 0.546875,0 0.734375,0.0625 0.921875,0.34375 L 3.3125,-3.375 1.6875,-0.96875 C 1.546875,-0.765625 1.25,-0.3125 0.234375,-0.3125 V 0 c 0.359375,-0.015625 0.78125,-0.03125 1.109375,-0.03125 0.375,0 0.921875,0 1.28125,0.03125 V -0.3125 C 2.15625,-0.3125 2,-0.59375 2,-0.765625 2,-0.859375 2.03125,-0.890625 2.09375,-1 l 1.421875,-2.09375 1.5625,2.375 c 0.03125,0.046875 0.0625,0.078125 0.0625,0.109375 0,0.125 -0.21875,0.296875 -0.65625,0.296875 V 0 C 4.828125,-0.03125 5.5625,-0.03125 5.9375,-0.03125 c 0.421875,0 0.875,0.015625 1.296875,0.03125 v -0.3125 h -0.1875 c -0.515625,0 -0.734375,-0.046875 -0.9375,-0.359375 z m 0,0"
           style="stroke:none" /></symbol><symbol
         id="symbol648"
         overflow="visible"
         style="overflow:visible"><path
           id="path646"
           d=""
           style="stroke:none" /></symbol><symbol
         id="symbol652"
         overflow="visible"
         style="overflow:visible"><path
           id="path650"
           d="M 3.125,-4.8125 C 3.09375,-4.921875 3.0625,-4.96875 2.9375,-4.96875 c -0.140625,0 -0.15625,0.046875 -0.203125,0.15625 L 1.125,-0.734375 C 1.0625,-0.5625 0.9375,-0.25 0.3125,-0.25 V 0 C 0.546875,-0.015625 0.796875,-0.03125 1.03125,-0.03125 1.3125,-0.03125 1.828125,0 1.875,0 v -0.25 c -0.3125,0 -0.515625,-0.140625 -0.515625,-0.328125 0,-0.0625 0.015625,-0.078125 0.046875,-0.140625 L 1.734375,-1.578125 H 3.71875 L 4.125,-0.5625 c 0,0.03125 0.03125,0.078125 0.03125,0.109375 C 4.15625,-0.25 3.78125,-0.25 3.59375,-0.25 V 0 C 3.9375,-0.015625 4.390625,-0.03125 4.625,-0.03125 4.953125,-0.03125 5.484375,0 5.546875,0 v -0.25 h -0.125 c -0.46875,0 -0.515625,-0.078125 -0.59375,-0.265625 z m -0.40625,0.71875 0.890625,2.265625 h -1.78125 z m 0,0"
           style="stroke:none" /></symbol></g><g
       id="g709"><symbol
         overflow="visible"
         id="symbol671"
         style="overflow:visible"><path
           style="stroke:none"
           d=""
           id="path669" /></symbol><symbol
         overflow="visible"
         id="symbol675"
         style="overflow:visible"><path
           style="stroke:none"
           d="m 2.828125,-5.609375 c 0,-0.71875 0,-0.9375 0.234375,-1.1875 C 3.234375,-6.984375 3.46875,-7.21875 4.171875,-7.25 4.21875,-7.265625 4.25,-7.3125 4.25,-7.359375 c 0,-0.125 -0.078125,-0.125 -0.1875,-0.125 -1,0 -1.890625,0.515625 -1.90625,1.234375 v 1.828125 c 0,0.9375 0,1.09375 -0.265625,1.375 -0.140625,0.140625 -0.40625,0.40625 -1.03125,0.4375 -0.078125,0 -0.140625,0.015625 -0.140625,0.109375 0,0.109375 0.0625,0.109375 0.15625,0.125 0.4375,0.015625 1.28125,0.234375 1.28125,1.234375 v 1.96875 c 0,0.578125 0,0.921875 0.515625,1.28125 C 3.09375,2.40625 3.75,2.5 4.0625,2.5 4.171875,2.5 4.25,2.5 4.25,2.375 4.25,2.28125 4.203125,2.28125 4.09375,2.265625 3.3125,2.21875 2.9375,1.78125 2.84375,1.421875 2.828125,1.3125 2.828125,1.28125 2.828125,0.9375 v -1.5 c 0,-0.296875 0,-0.796875 -0.03125,-0.90625 C 2.671875,-2.125 2.03125,-2.375 1.640625,-2.5 c 1.1875,-0.328125 1.1875,-1.03125 1.1875,-1.3125 z m 0,0"
           id="path673" /></symbol><symbol
         overflow="visible"
         id="symbol679"
         style="overflow:visible"><path
           style="stroke:none"
           d="M 4,2.265625 C 4.03125,2.375 4.078125,2.5 4.21875,2.5 c 0.109375,0 0.203125,-0.09375 0.203125,-0.203125 0,-0.03125 0,-0.046875 -0.0625,-0.1875 L 0.984375,-7.25 C 0.9375,-7.359375 0.890625,-7.484375 0.75,-7.484375 c -0.109375,0 -0.1875,0.09375 -0.1875,0.203125 0,0.03125 0,0.046875 0.046875,0.1875 z m 0,0"
           id="path677" /></symbol><symbol
         overflow="visible"
         id="symbol683"
         style="overflow:visible"><path
           style="stroke:none"
           d="m 2.828125,-5.8125 c 0,-0.578125 0,-0.921875 -0.53125,-1.28125 -0.421875,-0.296875 -1.0625,-0.390625 -1.375,-0.390625 -0.109375,0 -0.203125,0 -0.203125,0.125 0,0.09375 0.0625,0.09375 0.15625,0.109375 0.796875,0.046875 1.15625,0.484375 1.25,0.84375 0.03125,0.109375 0.03125,0.140625 0.03125,0.484375 v 1.5 c 0,0.296875 0,0.796875 0.015625,0.90625 0.125,0.65625 0.765625,0.90625 1.15625,1.015625 C 2.15625,-2.15625 2.15625,-1.453125 2.15625,-1.171875 V 0.625 c 0,0.71875 0,0.9375 -0.25,1.1875 C 1.734375,2 1.5,2.234375 0.8125,2.265625 0.75,2.28125 0.71875,2.328125 0.71875,2.375 0.71875,2.5 0.8125,2.5 0.921875,2.5 c 0.984375,0 1.875,-0.515625 1.90625,-1.234375 V -0.5625 c 0,-0.9375 0,-1.09375 0.25,-1.375 C 3.21875,-2.078125 3.484375,-2.34375 4.109375,-2.375 4.1875,-2.375 4.25,-2.390625 4.25,-2.5 4.25,-2.59375 4.203125,-2.59375 4.09375,-2.609375 3.671875,-2.625 2.828125,-2.84375 2.828125,-3.84375 Z m 0,0"
           id="path681" /></symbol><symbol
         overflow="visible"
         id="symbol687"
         style="overflow:visible"><path
           style="stroke:none"
           d=""
           id="path685" /></symbol><symbol
         overflow="visible"
         id="symbol691"
         style="overflow:visible"><path
           style="stroke:none"
           d="m 1.78125,-5.484375 h 0.546875 c 0.140625,0 0.40625,0 0.40625,-0.296875 0,-0.3125 -0.25,-0.3125 -0.40625,-0.3125 H 0.71875 c -0.15625,0 -0.40625,0 -0.40625,0.3125 0,0.296875 0.25,0.296875 0.40625,0.296875 h 0.375 v 4.875 h -0.375 c -0.15625,0 -0.40625,0 -0.40625,0.3125 C 0.3125,0 0.5625,0 0.71875,0 h 3.75 c 0.328125,0 0.390625,-0.09375 0.390625,-0.40625 v -0.890625 c 0,-0.203125 0,-0.40625 -0.328125,-0.40625 -0.359375,0 -0.359375,0.203125 -0.359375,0.40625 v 0.6875 H 1.78125 Z m 0,0"
           id="path689" /></symbol><symbol
         overflow="visible"
         id="symbol695"
         style="overflow:visible"><path
           style="stroke:none"
           d="M 3.65625,-0.3125 C 3.875,-0.015625 4.34375,0 4.71875,0 c 0.28125,0 0.5,0 0.5,-0.3125 0,-0.296875 -0.25,-0.296875 -0.390625,-0.296875 -0.421875,0 -0.515625,-0.046875 -0.59375,-0.078125 v -2.15625 c 0,-0.703125 -0.546875,-1.546875 -1.984375,-1.546875 -0.421875,0 -1.4375,0 -1.4375,0.734375 0,0.296875 0.203125,0.453125 0.4375,0.453125 0.15625,0 0.4375,-0.09375 0.4375,-0.453125 0,-0.078125 0.015625,-0.09375 0.21875,-0.109375 0.140625,-0.015625 0.265625,-0.015625 0.359375,-0.015625 0.75,0 1.265625,0.3125 1.265625,1.015625 -1.75,0.03125 -2.984375,0.53125 -2.984375,1.484375 0,0.6875 0.625,1.34375 1.640625,1.34375 0.375,0 1,-0.078125 1.46875,-0.375 z m -0.125,-1.859375 v 0.84375 c 0,0.21875 0,0.4375 -0.375,0.609375 -0.359375,0.171875 -0.8125,0.171875 -0.890625,0.171875 -0.625,0 -1.03125,-0.34375 -1.03125,-0.734375 0,-0.484375 0.859375,-0.859375 2.296875,-0.890625 z m 0,0"
           id="path693" /></symbol><symbol
         overflow="visible"
         id="symbol699"
         style="overflow:visible"><path
           style="stroke:none"
           d="M 2.953125,-5.484375 H 4.28125 v 0.53125 c 0,0.1875 0,0.40625 0.328125,0.40625 0.359375,0 0.359375,-0.203125 0.359375,-0.40625 V -5.6875 c 0,-0.296875 -0.0625,-0.40625 -0.40625,-0.40625 H 0.671875 c -0.328125,0 -0.40625,0.078125 -0.40625,0.40625 v 0.734375 c 0,0.1875 0,0.40625 0.328125,0.40625 0.359375,0 0.359375,-0.203125 0.359375,-0.40625 v -0.53125 h 1.3125 v 4.875 H 1.75 c -0.140625,0 -0.390625,0 -0.390625,0.296875 C 1.359375,0 1.59375,0 1.75,0 H 3.484375 C 3.625,0 3.875,0 3.875,-0.296875 c 0,-0.3125 -0.234375,-0.3125 -0.390625,-0.3125 h -0.53125 z m 0,0"
           id="path697" /></symbol><symbol
         overflow="visible"
         id="symbol703"
         style="overflow:visible"><path
           style="stroke:none"
           d="m 4.234375,-1.90625 c 0.203125,0 0.390625,0 0.390625,-0.359375 0,-1.140625 -0.640625,-2.125 -1.9375,-2.125 -1.1875,0 -2.140625,1 -2.140625,2.234375 0,1.203125 1.015625,2.21875 2.296875,2.21875 1.3125,0 1.78125,-0.90625 1.78125,-1.15625 0,-0.265625 -0.28125,-0.265625 -0.34375,-0.265625 -0.1875,0 -0.265625,0.03125 -0.328125,0.21875 -0.21875,0.5 -0.765625,0.59375 -1.046875,0.59375 -0.75,0 -1.484375,-0.5 -1.65625,-1.359375 z M 1.265625,-2.5 C 1.40625,-3.234375 2,-3.78125 2.6875,-3.78125 c 0.515625,0 1.140625,0.25 1.234375,1.28125 z m 0,0"
           id="path701" /></symbol><symbol
         overflow="visible"
         id="symbol707"
         style="overflow:visible"><path
           style="stroke:none"
           d="m 2.90625,-3.25 1.125,-2.234375 H 4.25 c 0.140625,0 0.40625,0 0.40625,-0.296875 0,-0.3125 -0.265625,-0.3125 -0.40625,-0.3125 H 3.203125 c -0.140625,0 -0.390625,0 -0.390625,0.296875 0,0.3125 0.234375,0.3125 0.453125,0.3125 L 2.5625,-4.03125 1.796875,-5.484375 c 0.203125,0 0.421875,0 0.421875,-0.3125 0,-0.296875 -0.25,-0.296875 -0.390625,-0.296875 H 0.78125 c -0.140625,0 -0.40625,0 -0.40625,0.296875 0,0.3125 0.265625,0.3125 0.40625,0.3125 h 0.234375 l 1.203125,2.25 -1.328125,2.625 h -0.21875 c -0.15625,0 -0.40625,0 -0.40625,0.3125 C 0.265625,0 0.515625,0 0.671875,0 h 1.03125 c 0.15625,0 0.40625,0 0.40625,-0.296875 0,-0.3125 -0.234375,-0.3125 -0.46875,-0.3125 l 0.921875,-1.9375 0.984375,1.9375 c -0.234375,0 -0.453125,0 -0.453125,0.3125 C 3.09375,0 3.34375,0 3.5,0 H 4.53125 C 4.6875,0 4.9375,0 4.9375,-0.296875 c 0,-0.3125 -0.25,-0.3125 -0.40625,-0.3125 H 4.3125 Z m 0,0"
           id="path705" /></symbol></g></defs><g
     inkscape:label="Layer 1"
     inkscape:groupmode="layer"
     id="layer1"><g
       id="g833"
       transform="matrix(1.1321605,0,0,1.1321605,92.95422,42.919928)"><g
         id="logo_art"
         transform="translate(-123.97696,-123.92475)">
	<g
   id="g769">
		
		<g
   id="g767">
			<path
   id="path50_5_"
   class="st3"
   d="m 292.778,434.892 v 0 L 354.977,243.57 H 230.669 Z" />
			<path
   id="path66_12_"
   class="st4"
   d="m 143.549,243.57 v 0 l -18.941,58.126 c -1.714,5.278 0.137,11.104 4.661,14.394 l 163.509,118.801 z" />
			<path
   id="path74_5_"
   class="st3"
   d="m 143.549,243.57 h 87.12 L 193.175,128.346 c -1.919,-5.895 -10.282,-5.895 -12.27,0 z" />
			<path
   id="path82_12_"
   class="st4"
   d="m 442.097,243.57 v 0 l 18.873,58.126 c 1.714,5.278 -0.137,11.104 -4.661,14.394 L 292.778,434.892 Z" />
			<path
   id="path86_5_"
   class="st3"
   d="m 442.097,243.57 h -87.12 l 37.425,-115.224 c 1.919,-5.895 10.282,-5.895 12.27,0 z" />
			<polygon
   class="st5"
   points="354.977,243.57 442.097,243.57 292.778,434.892 "
   id="polygon763" />
			<polygon
   class="st5"
   points="143.549,243.57 230.669,243.57 292.778,434.892 "
   id="polygon765" />
		</g>
	</g>
</g><g
         id="spacing_guides"
         class="st14"
         transform="translate(-123.97696,-123.92475)">
	<path
   id="path40_32_"
   sketch:type="MSShapeGroup"
   class="st15"
   d="M -1,0 V 124 H 1267 V 0 Z" />
	<path
   id="path40_31_"
   sketch:type="MSShapeGroup"
   class="st15"
   d="M -1,435 V 559 H 1267 V 435 Z" />
	<path
   id="path40_30_"
   sketch:type="MSShapeGroup"
   class="st15"
   d="m 261.69,434.551 h 62 v -310 h -62 z" />
	<path
   id="path40_29_"
   sketch:type="MSShapeGroup"
   class="st15"
   d="m 462.2,560 h 62 V -1 h -62 z" />
	<text
   transform="translate(256.2529,195)"
   class="st16 st18 st19"
   id="text776">H: 2.5 x</text>
	<text
   transform="translate(468.4727,282.832)"
   class="st16 st18 st19"
   id="text778">1/2 x</text>
	<text
   transform="translate(621.2881,500.4978)"
   class="st16 st18 st19"
   id="text780">1x</text>
	<text
   transform="translate(621.2881,65.4988)"
   class="st16 st18 st19"
   id="text782">1x</text>
	<path
   id="path40_27_"
   sketch:type="MSShapeGroup"
   class="st15"
   d="M 0,560 H 124 V -1 H 0 Z" />
	<text
   transform="translate(51.2881,282.832)"
   class="st16 st18 st19"
   id="text785">1x</text>
	<path
   id="path40_3_"
   sketch:type="MSShapeGroup"
   class="st15"
   d="m 1142,560 h 124 V -1 h -124 z" />
	<text
   transform="translate(1191.2881,282.832)"
   class="st16 st18 st19"
   id="text788">1x</text>
</g></g><g
       inkscape:label="Layer 1"
       id="layer1-7"
       transform="matrix(1.2701947,0,0,1.2701947,-1624.2958,-824.82508)"><g
         id="g3167"
         ns0:preamble="/home/nmichalo/textextpreamble.tex"
         ns0:text="\\LaTeX"
         transform="matrix(10.855,0,0,11.362081,-1076.6447,-545.2946)"><defs
           id="defs3169"><g
             id="g1118"><symbol
               id="symbol1092"
               overflow="visible"
               style="overflow:visible"><path
                 id="path1090"
                 d=""
                 style="stroke:none" /></symbol><symbol
               id="symbol1096"
               overflow="visible"
               style="overflow:visible"><path
                 id="path1094"
                 d="m 5.796875,-2.578125 h -0.25 c -0.109375,1.015625 -0.25,2.265625 -2,2.265625 h -0.8125 C 2.265625,-0.3125 2.25,-0.375 2.25,-0.703125 v -5.3125 C 2.25,-6.359375 2.25,-6.5 3.1875,-6.5 H 3.515625 V -6.8125 C 3.15625,-6.78125 2.25,-6.78125 1.84375,-6.78125 c -0.390625,0 -1.171875,0 -1.515625,-0.03125 V -6.5 H 0.5625 c 0.765625,0 0.796875,0.109375 0.796875,0.46875 v 5.25 c 0,0.359375 -0.03125,0.46875 -0.796875,0.46875 H 0.328125 V 0 h 5.1875 z m 0,0"
                 style="stroke:none" /></symbol><symbol
               id="symbol1100"
               overflow="visible"
               style="overflow:visible"><path
                 id="path1098"
                 d="m 6.640625,-6.75 h -6.09375 l -0.1875,2.25 h 0.25 C 0.75,-6.109375 0.890625,-6.4375 2.40625,-6.4375 c 0.171875,0 0.4375,0 0.53125,0.015625 0.21875,0.046875 0.21875,0.15625 0.21875,0.375 v 5.265625 c 0,0.328125 0,0.46875 -1.046875,0.46875 H 1.703125 V 0 C 2.109375,-0.03125 3.125,-0.03125 3.59375,-0.03125 c 0.453125,0 1.484375,0 1.890625,0.03125 v -0.3125 h -0.40625 c -1.046875,0 -1.046875,-0.140625 -1.046875,-0.46875 v -5.265625 c 0,-0.1875 0,-0.328125 0.1875,-0.375 0.109375,-0.015625 0.375,-0.015625 0.5625,-0.015625 1.515625,0 1.65625,0.328125 1.796875,1.9375 h 0.25 z m 0,0"
                 style="stroke:none" /></symbol><symbol
               id="symbol1104"
               overflow="visible"
               style="overflow:visible"><path
                 id="path1102"
                 d="M 6.5,-2.578125 H 6.25 C 6,-1.03125 5.765625,-0.3125 4.0625,-0.3125 H 2.734375 C 2.265625,-0.3125 2.25,-0.375 2.25,-0.703125 V -3.375 h 0.890625 c 0.96875,0 1.078125,0.328125 1.078125,1.171875 h 0.25 V -4.84375 h -0.25 c 0,0.859375 -0.109375,1.171875 -1.078125,1.171875 H 2.25 v -2.40625 c 0,-0.328125 0.015625,-0.390625 0.484375,-0.390625 h 1.28125 c 1.53125,0 1.796875,0.546875 1.953125,1.9375 h 0.25 l -0.28125,-2.25 H 0.328125 v 0.3125 H 0.5625 c 0.765625,0 0.796875,0.109375 0.796875,0.46875 v 5.21875 c 0,0.359375 -0.03125,0.46875 -0.796875,0.46875 H 0.328125 V 0 h 5.75 z m 0,0"
                 style="stroke:none" /></symbol><symbol
               id="symbol1108"
               overflow="visible"
               style="overflow:visible"><path
                 id="path1106"
                 d="m 4,-3.84375 1.375,-2.015625 c 0.21875,-0.3125 0.5625,-0.625 1.4375,-0.640625 v -0.3125 c -0.375,0.015625 -0.84375,0.03125 -1.09375,0.03125 -0.40625,0 -0.890625,0 -1.28125,-0.03125 V -6.5 c 0.390625,0.015625 0.609375,0.234375 0.609375,0.453125 0,0.109375 -0.015625,0.125 -0.078125,0.234375 L 3.828125,-4.125 2.546875,-6.046875 C 2.515625,-6.078125 2.46875,-6.15625 2.46875,-6.203125 2.46875,-6.3125 2.6875,-6.484375 3.125,-6.5 v -0.3125 c -0.359375,0.03125 -1.078125,0.03125 -1.453125,0.03125 -0.3125,0 -0.9375,0 -1.296875,-0.03125 V -6.5 h 0.1875 c 0.546875,0 0.734375,0.0625 0.921875,0.34375 L 3.3125,-3.375 1.6875,-0.96875 C 1.546875,-0.765625 1.25,-0.3125 0.234375,-0.3125 V 0 c 0.359375,-0.015625 0.78125,-0.03125 1.109375,-0.03125 0.375,0 0.921875,0 1.28125,0.03125 V -0.3125 C 2.15625,-0.3125 2,-0.59375 2,-0.765625 2,-0.859375 2.03125,-0.890625 2.09375,-1 l 1.421875,-2.09375 1.5625,2.375 c 0.03125,0.046875 0.0625,0.078125 0.0625,0.109375 0,0.125 -0.21875,0.296875 -0.65625,0.296875 V 0 C 4.828125,-0.03125 5.5625,-0.03125 5.9375,-0.03125 c 0.421875,0 0.875,0.015625 1.296875,0.03125 v -0.3125 h -0.1875 c -0.515625,0 -0.734375,-0.046875 -0.9375,-0.359375 z m 0,0"
                 style="stroke:none" /></symbol><symbol
               id="symbol1112"
               overflow="visible"
               style="overflow:visible"><path
                 id="path1110"
                 d=""
                 style="stroke:none" /></symbol><symbol
               id="symbol1116"
               overflow="visible"
               style="overflow:visible"><path
                 id="path1114"
                 d="M 3.125,-4.8125 C 3.09375,-4.921875 3.0625,-4.96875 2.9375,-4.96875 c -0.140625,0 -0.15625,0.046875 -0.203125,0.15625 L 1.125,-0.734375 C 1.0625,-0.5625 0.9375,-0.25 0.3125,-0.25 V 0 C 0.546875,-0.015625 0.796875,-0.03125 1.03125,-0.03125 1.3125,-0.03125 1.828125,0 1.875,0 v -0.25 c -0.3125,0 -0.515625,-0.140625 -0.515625,-0.328125 0,-0.0625 0.015625,-0.078125 0.046875,-0.140625 L 1.734375,-1.578125 H 3.71875 L 4.125,-0.5625 c 0,0.03125 0.03125,0.078125 0.03125,0.109375 C 4.15625,-0.25 3.78125,-0.25 3.59375,-0.25 V 0 C 3.9375,-0.015625 4.390625,-0.03125 4.625,-0.03125 4.953125,-0.03125 5.484375,0 5.546875,0 v -0.25 h -0.125 c -0.46875,0 -0.515625,-0.078125 -0.59375,-0.265625 z m -0.40625,0.71875 0.890625,2.265625 h -1.78125 z m 0,0"
                 style="stroke:none" /></symbol></g></defs><g
           id="textext-204e4e81-7"><g
             id="g3195"
             style="fill:#000000;fill-opacity:1"><use
               id="use3197"
               y="134.765"
               x="223.43201"
               xlink:href="#textext-204e4e81-1"
               width="744.09448"
               height="1052.3622" /></g><g
             id="g3199"
             style="fill:#000000;fill-opacity:1"><use
               id="use3201"
               y="132.722"
               x="226.07201"
               xlink:href="#textext-204e4e81-6"
               width="744.09448"
               height="1052.3622" /></g><g
             id="g3203"
             style="fill:#000000;fill-opacity:1"><use
               id="use3205"
               y="134.765"
               x="230.459"
               xlink:href="#textext-204e4e81-2"
               width="744.09448"
               height="1052.3622" /></g><g
             id="g3207"
             style="fill:#000000;fill-opacity:1"><use
               id="use3209"
               y="136.909"
               x="235.993"
               xlink:href="#textext-204e4e81-3"
               width="744.09448"
               height="1052.3622" /></g><g
             id="g3211"
             style="fill:#000000;fill-opacity:1"><use
               id="use3213"
               y="134.765"
               x="241.528"
               xlink:href="#textext-204e4e81-4"
               width="744.09448"
               height="1052.3622" /></g></g></g><g
         ns0:text="\\texttt{\\textcolor{red}{\\{}\\textcolor{darkred}{\\textbackslash LaTeX}\\textcolor{red}{\\}}}"
         ns0:preamble="~/nmichalo/textextpreamble.tex"
         transform="matrix(6,0,0,6,-36.146022,3.2369572)"
         id="g3024"><defs
           id="defs3026"><g
             id="g1173"><symbol
               overflow="visible"
               id="symbol1135"
               style="overflow:visible"><path
                 style="stroke:none"
                 d=""
                 id="path1133" /></symbol><symbol
               overflow="visible"
               id="symbol1139"
               style="overflow:visible"><path
                 style="stroke:none"
                 d="m 2.828125,-5.609375 c 0,-0.71875 0,-0.9375 0.234375,-1.1875 C 3.234375,-6.984375 3.46875,-7.21875 4.171875,-7.25 4.21875,-7.265625 4.25,-7.3125 4.25,-7.359375 c 0,-0.125 -0.078125,-0.125 -0.1875,-0.125 -1,0 -1.890625,0.515625 -1.90625,1.234375 v 1.828125 c 0,0.9375 0,1.09375 -0.265625,1.375 -0.140625,0.140625 -0.40625,0.40625 -1.03125,0.4375 -0.078125,0 -0.140625,0.015625 -0.140625,0.109375 0,0.109375 0.0625,0.109375 0.15625,0.125 0.4375,0.015625 1.28125,0.234375 1.28125,1.234375 v 1.96875 c 0,0.578125 0,0.921875 0.515625,1.28125 C 3.09375,2.40625 3.75,2.5 4.0625,2.5 4.171875,2.5 4.25,2.5 4.25,2.375 4.25,2.28125 4.203125,2.28125 4.09375,2.265625 3.3125,2.21875 2.9375,1.78125 2.84375,1.421875 2.828125,1.3125 2.828125,1.28125 2.828125,0.9375 v -1.5 c 0,-0.296875 0,-0.796875 -0.03125,-0.90625 C 2.671875,-2.125 2.03125,-2.375 1.640625,-2.5 c 1.1875,-0.328125 1.1875,-1.03125 1.1875,-1.3125 z m 0,0"
                 id="path1137" /></symbol><symbol
               overflow="visible"
               id="symbol1143"
               style="overflow:visible"><path
                 style="stroke:none"
                 d="M 4,2.265625 C 4.03125,2.375 4.078125,2.5 4.21875,2.5 c 0.109375,0 0.203125,-0.09375 0.203125,-0.203125 0,-0.03125 0,-0.046875 -0.0625,-0.1875 L 0.984375,-7.25 C 0.9375,-7.359375 0.890625,-7.484375 0.75,-7.484375 c -0.109375,0 -0.1875,0.09375 -0.1875,0.203125 0,0.03125 0,0.046875 0.046875,0.1875 z m 0,0"
                 id="path1141" /></symbol><symbol
               overflow="visible"
               id="symbol1147"
               style="overflow:visible"><path
                 style="stroke:none"
                 d="m 2.828125,-5.8125 c 0,-0.578125 0,-0.921875 -0.53125,-1.28125 -0.421875,-0.296875 -1.0625,-0.390625 -1.375,-0.390625 -0.109375,0 -0.203125,0 -0.203125,0.125 0,0.09375 0.0625,0.09375 0.15625,0.109375 0.796875,0.046875 1.15625,0.484375 1.25,0.84375 0.03125,0.109375 0.03125,0.140625 0.03125,0.484375 v 1.5 c 0,0.296875 0,0.796875 0.015625,0.90625 0.125,0.65625 0.765625,0.90625 1.15625,1.015625 C 2.15625,-2.15625 2.15625,-1.453125 2.15625,-1.171875 V 0.625 c 0,0.71875 0,0.9375 -0.25,1.1875 C 1.734375,2 1.5,2.234375 0.8125,2.265625 0.75,2.28125 0.71875,2.328125 0.71875,2.375 0.71875,2.5 0.8125,2.5 0.921875,2.5 c 0.984375,0 1.875,-0.515625 1.90625,-1.234375 V -0.5625 c 0,-0.9375 0,-1.09375 0.25,-1.375 C 3.21875,-2.078125 3.484375,-2.34375 4.109375,-2.375 4.1875,-2.375 4.25,-2.390625 4.25,-2.5 4.25,-2.59375 4.203125,-2.59375 4.09375,-2.609375 3.671875,-2.625 2.828125,-2.84375 2.828125,-3.84375 Z m 0,0"
                 id="path1145" /></symbol><symbol
               overflow="visible"
               id="symbol1151"
               style="overflow:visible"><path
                 style="stroke:none"
                 d=""
                 id="path1149" /></symbol><symbol
               overflow="visible"
               id="symbol1155"
               style="overflow:visible"><path
                 style="stroke:none"
                 d="m 1.78125,-5.484375 h 0.546875 c 0.140625,0 0.40625,0 0.40625,-0.296875 0,-0.3125 -0.25,-0.3125 -0.40625,-0.3125 H 0.71875 c -0.15625,0 -0.40625,0 -0.40625,0.3125 0,0.296875 0.25,0.296875 0.40625,0.296875 h 0.375 v 4.875 h -0.375 c -0.15625,0 -0.40625,0 -0.40625,0.3125 C 0.3125,0 0.5625,0 0.71875,0 h 3.75 c 0.328125,0 0.390625,-0.09375 0.390625,-0.40625 v -0.890625 c 0,-0.203125 0,-0.40625 -0.328125,-0.40625 -0.359375,0 -0.359375,0.203125 -0.359375,0.40625 v 0.6875 H 1.78125 Z m 0,0"
                 id="path1153" /></symbol><symbol
               overflow="visible"
               id="symbol1159"
               style="overflow:visible"><path
                 style="stroke:none"
                 d="M 3.65625,-0.3125 C 3.875,-0.015625 4.34375,0 4.71875,0 c 0.28125,0 0.5,0 0.5,-0.3125 0,-0.296875 -0.25,-0.296875 -0.390625,-0.296875 -0.421875,0 -0.515625,-0.046875 -0.59375,-0.078125 v -2.15625 c 0,-0.703125 -0.546875,-1.546875 -1.984375,-1.546875 -0.421875,0 -1.4375,0 -1.4375,0.734375 0,0.296875 0.203125,0.453125 0.4375,0.453125 0.15625,0 0.4375,-0.09375 0.4375,-0.453125 0,-0.078125 0.015625,-0.09375 0.21875,-0.109375 0.140625,-0.015625 0.265625,-0.015625 0.359375,-0.015625 0.75,0 1.265625,0.3125 1.265625,1.015625 -1.75,0.03125 -2.984375,0.53125 -2.984375,1.484375 0,0.6875 0.625,1.34375 1.640625,1.34375 0.375,0 1,-0.078125 1.46875,-0.375 z m -0.125,-1.859375 v 0.84375 c 0,0.21875 0,0.4375 -0.375,0.609375 -0.359375,0.171875 -0.8125,0.171875 -0.890625,0.171875 -0.625,0 -1.03125,-0.34375 -1.03125,-0.734375 0,-0.484375 0.859375,-0.859375 2.296875,-0.890625 z m 0,0"
                 id="path1157" /></symbol><symbol
               overflow="visible"
               id="symbol1163"
               style="overflow:visible"><path
                 style="stroke:none"
                 d="M 2.953125,-5.484375 H 4.28125 v 0.53125 c 0,0.1875 0,0.40625 0.328125,0.40625 0.359375,0 0.359375,-0.203125 0.359375,-0.40625 V -5.6875 c 0,-0.296875 -0.0625,-0.40625 -0.40625,-0.40625 H 0.671875 c -0.328125,0 -0.40625,0.078125 -0.40625,0.40625 v 0.734375 c 0,0.1875 0,0.40625 0.328125,0.40625 0.359375,0 0.359375,-0.203125 0.359375,-0.40625 v -0.53125 h 1.3125 v 4.875 H 1.75 c -0.140625,0 -0.390625,0 -0.390625,0.296875 C 1.359375,0 1.59375,0 1.75,0 H 3.484375 C 3.625,0 3.875,0 3.875,-0.296875 c 0,-0.3125 -0.234375,-0.3125 -0.390625,-0.3125 h -0.53125 z m 0,0"
                 id="path1161" /></symbol><symbol
               overflow="visible"
               id="symbol1167"
               style="overflow:visible"><path
                 style="stroke:none"
                 d="m 4.234375,-1.90625 c 0.203125,0 0.390625,0 0.390625,-0.359375 0,-1.140625 -0.640625,-2.125 -1.9375,-2.125 -1.1875,0 -2.140625,1 -2.140625,2.234375 0,1.203125 1.015625,2.21875 2.296875,2.21875 1.3125,0 1.78125,-0.90625 1.78125,-1.15625 0,-0.265625 -0.28125,-0.265625 -0.34375,-0.265625 -0.1875,0 -0.265625,0.03125 -0.328125,0.21875 -0.21875,0.5 -0.765625,0.59375 -1.046875,0.59375 -0.75,0 -1.484375,-0.5 -1.65625,-1.359375 z M 1.265625,-2.5 C 1.40625,-3.234375 2,-3.78125 2.6875,-3.78125 c 0.515625,0 1.140625,0.25 1.234375,1.28125 z m 0,0"
                 id="path1165" /></symbol><symbol
               overflow="visible"
               id="symbol1171"
               style="overflow:visible"><path
                 style="stroke:none"
                 d="m 2.90625,-3.25 1.125,-2.234375 H 4.25 c 0.140625,0 0.40625,0 0.40625,-0.296875 0,-0.3125 -0.265625,-0.3125 -0.40625,-0.3125 H 3.203125 c -0.140625,0 -0.390625,0 -0.390625,0.296875 0,0.3125 0.234375,0.3125 0.453125,0.3125 L 2.5625,-4.03125 1.796875,-5.484375 c 0.203125,0 0.421875,0 0.421875,-0.3125 0,-0.296875 -0.25,-0.296875 -0.390625,-0.296875 H 0.78125 c -0.140625,0 -0.40625,0 -0.40625,0.296875 0,0.3125 0.265625,0.3125 0.40625,0.3125 h 0.234375 l 1.203125,2.25 -1.328125,2.625 h -0.21875 c -0.15625,0 -0.40625,0 -0.40625,0.3125 C 0.265625,0 0.515625,0 0.671875,0 h 1.03125 c 0.15625,0 0.40625,0 0.40625,-0.296875 0,-0.3125 -0.234375,-0.3125 -0.46875,-0.3125 l 0.921875,-1.9375 0.984375,1.9375 c -0.234375,0 -0.453125,0 -0.453125,0.3125 C 3.09375,0 3.34375,0 3.5,0 H 4.53125 C 4.6875,0 4.9375,0 4.9375,-0.296875 c 0,-0.3125 -0.25,-0.3125 -0.40625,-0.3125 H 4.3125 Z m 0,0"
                 id="path1169" /></symbol></g></defs><g
           id="textext-e61a4101-10"><g
             style="fill:#ff0000;fill-opacity:1"
             id="g3061"><use
               xlink:href="#textext-e61a4101-1"
               x="223.43201"
               y="134.765"
               id="use3063"
               width="744.09448"
               height="1052.3622" /></g><g
             style="fill:#008080;fill-opacity:1"
             id="g3065"><use
               xlink:href="#textext-e61a4101-2"
               x="228.4133"
               y="134.765"
               id="use3067"
               width="744.09448"
               height="1052.3622"
               style="fill:#008080" /></g><g
             style="fill:#008080;fill-opacity:1"
             id="g3069"><use
               xlink:href="#textext-e61a4101-5"
               x="233.395"
               y="134.765"
               id="use3071"
               width="744.09448"
               height="1052.3622"
               style="fill:#008080" /><use
               xlink:href="#textext-e61a4101-6"
               x="238.62537"
               y="134.765"
               id="use3073"
               width="744.09448"
               height="1052.3622"
               style="fill:#008080" /><use
               xlink:href="#textext-e61a4101-7"
               x="243.85573"
               y="134.765"
               id="use3075"
               width="744.09448"
               height="1052.3622"
               style="fill:#008080" /><use
               xlink:href="#textext-e61a4101-8"
               x="249.08609"
               y="134.765"
               id="use3077"
               width="744.09448"
               height="1052.3622"
               style="fill:#008080" /><use
               xlink:href="#textext-e61a4101-9"
               x="254.31647"
               y="134.765"
               id="use3079"
               width="744.09448"
               height="1052.3622"
               style="fill:#008080" /></g><g
             style="fill:#ff0000;fill-opacity:1"
             id="g3081"><use
               xlink:href="#textext-e61a4101-3"
               x="259.54599"
               y="134.765"
               id="use3083"
               width="744.09448"
               height="1052.3622" /></g></g></g></g></g><style
     type="text/css"
     id="style743">
	.st0{fill:#FAFAFA;}
	.st1{fill:#F0F0F0;}
	.st2{fill:#FFFFFF;}
	.st3{fill:#E24329;}
	.st4{fill:#FCA326;}
	.st5{fill:#FC6D26;}
	.st6{fill:#8C929D;}
	.st7{fill:#2E2E2E;}
	.st8{fill:none;stroke:#FCA326;stroke-width:16;stroke-linecap:round;stroke-linejoin:round;stroke-miterlimit:10;}
	.st9{fill:none;stroke:#FC6D26;stroke-width:16;stroke-linecap:round;stroke-linejoin:round;stroke-miterlimit:10;}
	.st10{fill:none;stroke:#E24329;stroke-width:16;stroke-linecap:round;stroke-linejoin:round;stroke-miterlimit:10;}
	.st11{fill:none;stroke:#F0F0F0;stroke-miterlimit:10;}
	.st12{fill:#231F20;}
	.st13{fill:none;stroke:#231F20;stroke-width:16;stroke-linecap:round;stroke-linejoin:round;stroke-miterlimit:10;}
	.st14{display:none;}
	.st15{display:inline;opacity:0.1;fill:#E828E3;}
	.st16{display:inline;}
	.st17{opacity:0.1;fill:#E828E3;}
	.st18{font-family:'SourceSansPro-Semibold';}
	.st19{font-size:24px;}
	.st20{display:inline;fill:#DB3B21;}
	.st21{display:inline;fill:#FC6D26;}
	.st22{display:inline;fill:#2E2E2E;}
	.st23{display:inline;fill:#6E49CB;}
	.st24{display:inline;fill:#380D75;}
	.st25{display:inline;fill:#FCA121;}
	.st26{opacity:0.6;fill:none;stroke:#231F20;stroke-width:2;stroke-miterlimit:10;stroke-dasharray:12,6;}
	.st27{fill:none;stroke:#444444;stroke-width:1.5339;stroke-miterlimit:10;}
</style></svg>
