<svg xmlns:freecad="http://www.freecadweb.org/wiki/index.php?title=Svg_Namespace" xmlns="http://www.w3.org/2000/svg" width="14mm" height="14mm" viewBox="-7 -10 14 14" style="stroke-linecap:round;stroke-linejoin:round;fill:none"><text style="font-size:4.23333359px;font-family:tahoma;text-align:center;text-anchor:middle;fill:#000;stroke-width:1.01955652;stroke-linecap:round;stroke-linejoin:round" freecad:editable="ID_01" y="-6">
    <tspan style="font-size:4.23333359px;text-align:center;text-anchor:middle;stroke-width:1.01955652">??</tspan>
  </text><text style="font-size:4.23333359px;font-family:tahoma;text-align:center;text-anchor:middle;fill:#000;stroke-width:1.01955652;stroke-linecap:round;stroke-linejoin:round" freecad:editable="ID" y="-2">
    <tspan style="font-size:4.23333359px;text-align:center;text-anchor:middle;stroke-width:1.01955652">??</tspan>
  </text><text style="font-size:4.23333359px;font-family:tahoma;text-align:center;text-anchor:middle;fill:#000;stroke-width:1.01955652;stroke-linecap:round;stroke-linejoin:round" freecad:editable="ID" y="2">
    <tspan style="font-size:4.23333359px;text-align:center;text-anchor:middle;stroke-width:1.01955652">??</tspan>
  </text><text style="font-size:4.23333359px;font-family:tahoma;text-align:center;text-anchor:middle;fill:#000;stroke-width:1.01955652;stroke-linecap:round;stroke-linejoin:round" freecad:editable="ID" y="6">
    <tspan style="font-size:4.23333359px;text-align:center;text-anchor:middle;stroke-width:1.01955652">??</tspan>
  </text><text style="font-size:4.23333359px;font-family:tahoma;text-align:center;text-anchor:middle;fill:#000;stroke-width:1.01955652;stroke-linecap:round;stroke-linejoin:round" freecad:editable="ID" y="10">
    <tspan style="font-size:4.23333359px;text-align:center;text-anchor:middle;stroke-width:1.01955652">??</tspan>
  </text><text style="font-size:4.23333359px;font-family:tahoma;text-align:center;text-anchor:middle;fill:#000;stroke-width:1.01955652;stroke-linecap:round;stroke-linejoin:round" freecad:editable="ID" y="14">
    <tspan style="font-size:4.23333359px;text-align:center;text-anchor:middle;stroke-width:1.01955652">??</tspan>
  </text><text style="font-size:4.23333359px;font-family:tahoma;text-align:center;text-anchor:middle;fill:#000;stroke-width:1.01955652;stroke-linecap:round;stroke-linejoin:round" freecad:editable="ID" y="18">
    <tspan style="font-size:4.23333359px;text-align:center;text-anchor:middle;stroke-width:1.01955652">??</tspan>
  </text><text style="font-size:4.23333359px;font-family:tahoma;text-align:center;text-anchor:middle;fill:#000;stroke-width:1.01955652;stroke-linecap:round;stroke-linejoin:round" freecad:editable="ID" y="22">
    <tspan style="font-size:4.23333359px;text-align:center;text-anchor:middle;stroke-width:1.01955652">??</tspan>
  </text><text style="font-size:4.23333359px;font-family:tahoma;text-align:center;text-anchor:middle;fill:#000;stroke-width:1.01955652;stroke-linecap:round;stroke-linejoin:round" freecad:editable="ID" y="26">
    <tspan style="font-size:4.23333359px;text-align:center;text-anchor:middle;stroke-width:1.01955652">??</tspan>
  </text><text style="font-size:4.23333359px;font-family:tahoma;text-align:center;text-anchor:middle;fill:#000;stroke-width:1.01955652;stroke-linecap:round;stroke-linejoin:round" freecad:editable="ID" y="30">
    <tspan style="font-size:4.23333359px;text-align:center;text-anchor:middle;stroke-width:1.01955652">??</tspan>
  </text></svg>