<?xml version="1.0" encoding="UTF-8" standalone="no"?>
<!-- Created with Inkscape (http://www.inkscape.org/) -->

<svg
   width="30mm"
   height="50mm"
   viewBox="0 0 30 50"
   version="1.1"
   id="svg5"
   xml:space="preserve"
   inkscape:version="1.2.1 (9c6d41e410, 2022-07-14)"
   sodipodi:docname="benou_woven_tag_30.50.svg"
   inkscape:export-filename="benou_woven_tag_20.50.png"
   inkscape:export-xdpi="107.78"
   inkscape:export-ydpi="107.78"
   xmlns:inkscape="http://www.inkscape.org/namespaces/inkscape"
   xmlns:sodipodi="http://sodipodi.sourceforge.net/DTD/sodipodi-0.dtd"
   xmlns="http://www.w3.org/2000/svg"
   xmlns:svg="http://www.w3.org/2000/svg"><sodipodi:namedview
     id="namedview7"
     pagecolor="#ffffff"
     bordercolor="#666666"
     borderopacity="1.0"
     inkscape:showpageshadow="2"
     inkscape:pageopacity="0.0"
     inkscape:pagecheckerboard="0"
     inkscape:deskcolor="#d1d1d1"
     inkscape:document-units="mm"
     showgrid="true"
     showguides="true"
     inkscape:zoom="2.8284271"
     inkscape:cx="76.367533"
     inkscape:cy="111.72287"
     inkscape:window-width="1920"
     inkscape:window-height="1017"
     inkscape:window-x="-8"
     inkscape:window-y="-8"
     inkscape:window-maximized="1"
     inkscape:current-layer="layer1"><inkscape:grid
       type="xygrid"
       id="grid443"
       units="mm"
       spacingx="0.99999999"
       spacingy="0.99999999"
       originx="0"
       originy="0" /><sodipodi:guide
       position="0,45.000001"
       orientation="0,-1"
       id="guide445"
       inkscape:locked="false" /><sodipodi:guide
       position="0,25"
       orientation="0,-1"
       id="guide447"
       inkscape:locked="false" /><sodipodi:guide
       position="0,5.0000004"
       orientation="0,-1"
       id="guide449"
       inkscape:locked="false" /></sodipodi:namedview><defs
     id="defs2" /><g
     inkscape:label="Layer 1"
     inkscape:groupmode="layer"
     id="layer1"><rect
       style="fill:#000000;stroke-width:3;stroke-linecap:round;stroke-linejoin:round"
       id="rect234"
       width="30"
       height="50"
       x="0"
       y="0"
       rx="0"
       ry="0" /><path
       id="path876"
       style="fill:#ffffff;stroke-width:0.264582"
       d="m 19.294288,14.532242 c -0.1714,0.01667 -0.311535,-0.181426 -0.48946,-0.07673 -0.299712,0.10296 -0.458444,0.400983 -0.652521,0.629574 -0.157625,0.223929 -0.319573,0.448584 -0.449806,0.688871 -0.148383,0.323962 -0.30853,0.649727 -0.352578,1.007895 -0.05473,0.281544 -0.05009,0.57051 -0.04983,0.854726 -0.180416,0.0133 -0.294233,-0.232893 -0.352261,-0.387635 -0.296661,-0.72888 -0.411732,-1.525839 -0.79341,-2.221241 -0.219315,-0.407249 -0.565352,-0.798226 -1.037624,-0.893229 -0.320989,-0.0612 -0.654716,0.08522 -0.847093,0.345035 -0.139246,0.165562 -0.245949,0.357987 -0.315166,0.562832 -0.158828,0.112764 -0.157664,-0.256906 -0.29852,-0.316324 -0.181335,-0.21601 -0.499485,-0.375887 -0.77257,-0.233408 -0.321508,0.144912 -0.459383,0.488911 -0.600987,0.786927 -0.223385,0.470173 -0.338064,0.979483 -0.496275,1.472665 -0.131082,0.387371 -0.310111,0.793663 -0.658258,1.032347 -0.256301,0.153056 -0.568722,0.10114 -0.849184,0.06575 -0.3146531,-0.05815 -0.6603871,-0.223807 -0.7764931,-0.542327 -0.01211,-0.18675 -0.05538,-0.407639 0.0082,-0.577616 0.155961,-0.04541 0.317664,0.03948 0.47851,-0.02701 0.5480031,-0.07354 1.0853231,-0.42672 1.2704981,-0.962471 0.183436,-0.525278 -0.09345,-1.168742 -0.617069,-1.371019 -0.484812,-0.219731 -1.0770271,-0.02142 -1.40476,0.378369 C 8.9584461,15.066187 8.8202379,15.475148 8.6922517,15.870869 8.6653273,16.0351 8.5280073,15.725341 8.4596932,15.673291 8.060757,15.193854 7.5682414,14.769216 6.9715601,14.561011 6.6721792,14.445969 6.3601676,14.366294 6.0448538,14.309278 5.8366652,14.365497 5.8234595,14.116148 5.9125897,13.996192 6.0144495,13.452455 5.7555276,12.866656 5.283626,12.57789 5.0590259,12.42159 4.8093961,12.284764 4.529606,12.272442 c -0.2684622,-0.01514 -0.5463714,-0.0069 -0.7932136,0.112993 -0.181631,0.118911 -0.3551326,-0.09545 -0.5430504,-0.03714 -0.2327503,0.02246 -0.4077646,0.275565 -0.2977171,0.492153 -0.00283,0.194777 -0.2023072,0.28944 -0.2958189,0.439105 -0.2996387,0.380797 -0.552311,0.810703 -0.6836545,1.278758 -0.01141,0.221686 0.00456,0.480962 0.1503733,0.658004 0.1911847,0.186678 0.5768988,0.122889 0.6438596,-0.154723 0.080021,-0.253105 0.1398709,-0.517136 0.2912754,-0.740358 0.096073,-0.150449 0.1884628,-0.305816 0.2998303,-0.444751 0.2007349,-0.06538 0.2128414,0.279725 0.3212221,0.394112 0.3661228,0.702347 0.6001843,1.479471 0.6216702,2.274401 0.033965,0.614687 0.014514,1.230506 0.024681,1.845702 -0.1907042,0.06439 -0.3727668,-0.08989 -0.5609434,-0.111571 -0.208063,-0.08151 -0.4773258,-0.07121 -0.6192935,0.122536 -0.169863,0.20289 -0.1242203,0.547303 0.1161405,0.67544 0.2369045,0.147144 0.5241034,0.167814 0.7824437,0.259328 0.1963568,-0.0273 0.2983771,0.101234 0.3345926,0.273205 0.1524227,0.23304 0.5200638,0.250827 0.7026225,0.04322 0.1034311,-0.06003 0.133715,-0.284888 0.1681881,-0.303625 0.150907,0.09691 0.3486919,-0.0127 0.519129,0.02574 0.7369759,-0.01638 1.4897573,-0.103231 2.171578,-0.398883 0.3096194,-0.152666 0.5846401,-0.372917 0.8254459,-0.616938 0.053281,-0.168014 0.2500937,-0.272829 0.3577879,-0.08636 0.2926693,0.298309 0.7070872,0.456844 1.1161943,0.511339 0.275638,0.02889 0.554404,0.07153 0.830034,0.0153 0.563588,-0.07463 1.042706,-0.467847 1.311637,-0.956949 C 12.663455,17.275287 12.790224,16.617576 13,16 c -5.92e-4,-0.138778 0.158653,-0.308278 0.169368,-0.07709 0.11248,0.596998 0.199385,1.200987 0.232317,1.807915 -0.0053,0.237758 0.01239,0.530926 0.24528,0.662624 0.257675,0.158687 0.682093,0.0069 0.694129,-0.320487 0.04569,-0.447252 0.0015,-0.902371 0.104292,-1.343895 0.10193,-0.494009 0.219801,-0.990489 0.425368,-1.452791 0.06425,-0.275982 0.31465,-0.111157 0.375672,0.06571 0.201056,0.311681 0.316973,0.671214 0.429642,1.022794 0.183322,0.582827 0.312889,1.198987 0.655624,1.715129 0.1584,0.234284 0.438917,0.443079 0.735079,0.386991 0.161999,0.0049 0.321126,-0.321826 0.41938,-0.08641 0.08226,0.243444 0.27294,0.433407 0.479287,0.578922 0.283633,0.197456 0.630663,0.273437 0.971252,0.284144 0.527465,0.05038 1.052721,-0.186501 1.406429,-0.573003 0.457406,-0.499247 0.895445,-1.068925 1.029001,-1.748172 -0.0062,-0.231439 0.281483,-0.202144 0.421752,-0.300635 0.132509,-0.02379 0.311614,-0.20774 0.402685,-0.149255 -0.04953,0.306744 -0.02825,0.617503 -0.0374,0.926856 -0.0085,0.441286 0.118147,0.889773 0.39946,1.234819 0.195243,0.304623 0.51504,0.516558 0.868505,0.590017 0.429506,0.107472 0.903774,0.01407 1.249839,-0.26465 0.285164,-0.221799 0.518798,-0.503094 0.716185,-0.80407 0.123745,0.138534 0.123348,0.34669 0.258973,0.481361 0.203327,0.28997 0.463424,0.538593 0.741756,0.755489 0.270868,0.192423 0.603948,0.246618 0.909357,0.358617 0.320422,0.110623 0.680203,-0.215514 0.598105,-0.544655 -0.05661,-0.269277 -0.339802,-0.379188 -0.577636,-0.43809 -0.247439,-0.05329 -0.486933,-0.164554 -0.648731,-0.365196 -0.263583,-0.255141 -0.468714,-0.607382 -0.428965,-0.986068 -0.0062,-0.63005 0.02711,-1.261003 -0.01706,-1.890291 -0.08254,-0.355819 -0.628694,-0.4641 -0.828128,-0.149698 -0.182933,0.270192 -0.106294,0.615058 -0.195066,0.91517 -0.123377,0.573566 -0.4013,1.102147 -0.753077,1.567794 -0.163745,0.232121 -0.394943,0.496265 -0.708359,0.466976 -0.244649,-0.01437 -0.444658,-0.19512 -0.533832,-0.415822 -0.161252,-0.272329 -0.100194,-0.594925 -0.108038,-0.89474 -0.0058,-0.471507 0.118117,-0.929514 0.250191,-1.377901 0.07289,-0.258073 0.209268,-0.489309 0.347806,-0.715684 0.11986,-0.238651 0.266633,-0.518261 0.168019,-0.78911 -0.08142,-0.221932 -0.33815,-0.341707 -0.562468,-0.275502 -0.300362,0.09057 -0.424159,0.412792 -0.534167,0.675973 -0.09256,0.240403 -0.233015,0.463039 -0.435701,0.625355 -0.198765,0.187925 -0.421126,0.352253 -0.666049,0.473754 -0.125014,0.137724 -0.368029,0.177787 -0.37205,-0.06917 -0.111143,-0.301693 -0.339289,-0.542925 -0.563676,-0.765683 -0.333359,-0.32707 -0.840551,-0.449536 -1.288789,-0.329449 -0.05248,0.01557 -0.10816,0.03614 -0.151305,0.06338 z M 4.3522777,13.206619 c 0.3347648,-0.01811 0.6914258,0.293293 0.6265937,0.642344 -0.063434,0.151718 -0.1528694,0.412533 -0.3199938,0.431722 -0.1029631,-0.13055 -0.1291237,-0.309456 -0.2244791,-0.449772 -0.092897,-0.189104 -0.1903374,-0.376348 -0.3024759,-0.554875 0.01819,-0.111189 0.1492522,-0.04641 0.2203551,-0.06941 z m 0.6083061,1.937106 c 0.4402366,0.127033 0.9158347,0.02076 1.3490661,0.185206 0.583745,0.154741 1.128985,0.495522 1.4687784,1.002017 0.2192953,0.303113 0.4662459,0.644631 0.4245839,1.039499 -0.048705,0.275825 -0.286307,0.469315 -0.5016216,0.624627 -0.4696584,0.305809 -1.0424231,0.369102 -1.5871024,0.42509 -0.2731553,0.02159 -0.5478995,0.04108 -0.8208043,0.03792 -0.182555,-0.08987 -0.045803,-0.353447 -0.087292,-0.51792 -0.01375,-0.877639 0.028411,-1.771669 -0.192394,-2.629352 -0.016149,-0.05617 -0.033936,-0.111892 -0.053213,-0.167074 z m 5.2179702,0.07729 c 0.228004,-0.04047 0.293688,0.300621 0.102783,0.398 -0.145561,0.09717 -0.3952411,0.308511 -0.5525841,0.183297 0.02134,-0.187736 0.152142,-0.349445 0.263389,-0.496909 0.04836,-0.05043 0.1151091,-0.08642 0.1864171,-0.0844 z m 9.57085,0.114676 c 0.315967,0.02461 0.525439,0.30223 0.672413,0.55493 0.03825,0.246375 -0.31264,0.136057 -0.452949,0.133809 -0.232981,-0.0248 -0.47074,-0.268336 -0.366996,-0.508514 0.03182,-0.07199 0.08609,-0.132035 0.147527,-0.180218 z m -1.072014,0.623266 c 0.114951,0.284728 0.25876,0.574834 0.522059,0.750842 0.294581,0.218167 0.671227,0.26833 1.027965,0.26391 0.26,0.04429 -0.02792,0.309693 -0.08053,0.433054 -0.203763,0.316258 -0.430752,0.643731 -0.764482,0.833595 -0.218096,0.107579 -0.477843,0.08121 -0.706689,0.02551 -0.292114,-0.07663 -0.470138,-0.389626 -0.430228,-0.681953 0.0017,-0.254979 -0.02685,-0.520224 0.06239,-0.763396 0.05711,-0.308598 0.214243,-0.592233 0.369506,-0.861567 z m 3.899141,2.675051 c 0.035,0.0082 -0.0035,0.06148 0,0 z"
       sodipodi:nodetypes="ssccccsccssccccsccccscccscccccsccccsscccsccssccccccssssccsccccccccscccsccccccccccsscccccsscsssccccccccccsccccccccsccccsccccccccccccsccccssccscsccc" /><g
       id="layer1-8"
       transform="matrix(-0.015625,0,0,-0.015625,27.039134,38.615124)"
       style="stroke-width:16.9333"><path
         d="M 297.29747,550.86823 C 283.52243,535.43191 249.1268,505.33855 220.86277,483.99412 137.11867,420.75228 125.72108,411.5999 91.719238,380.29088 29.03471,322.57071 2.413622,264.58086 2.5048478,185.95124 2.5493594,147.56739 5.1656152,132.77929 15.914734,110.15398 34.151433,71.768267 61.014996,43.244667 95.360052,25.799457 119.68545,13.443675 131.6827,7.9542046 172.30448,7.7296236 c 42.49329,-0.234834 51.43863,4.7197234 76.43471,18.4518354 30.42451,16.714318 61.7399,52.435708 68.21323,77.810591 l 3.9981,15.6724 9.85963,-21.584508 c 55.71617,-121.972928 233.59836,-120.148052 295.50229,3.031588 19.63767,39.07605 21.79364,122.51317 4.38012,169.51287 -22.71527,61.30937 -65.38001,108.05053 -164.00634,179.67658 -64.68082,46.97364 -137.88474,118.04586 -142.98067,128.02803 -5.91548,11.58753 -0.28216,1.8159 -26.40808,-27.46078 z"
         id="path2417"
         style="fill:#ff0000;stroke-width:16.9333" /><g
         transform="translate(129.28571,-64.285714)"
         id="g2221"
         style="stroke-width:16.9333" /></g><g
       id="g834"
       transform="matrix(0.28125,0,0,0.28125,2.9999999,30)"
       style="stroke-width:15.0518"><path
         d="M 0,0 H 32 V 32 H 0 Z"
         fill="#ff0000"
         id="path822"
         style="stroke-width:254.878" /><path
         d="m 13,6 h 6 v 7 h 7 v 6 h -7 v 7 H 13 V 19 H 6 v -6 h 7 z"
         fill="#ffffff"
         id="path824"
         style="stroke-width:254.878" /></g></g></svg>
