<?xml version="1.0" encoding="UTF-8" standalone="no"?>
<!-- Created with Inkscape (http://www.inkscape.org/) -->

<svg
   width="109.25mm"
   height="50.013195mm"
   viewBox="0 0 109.25 50.013195"
   version="1.1"
   id="svg5"
   inkscape:version="1.2-beta (1b65182ce9, 2022-04-05)"
   xml:space="preserve"
   sodipodi:docname="ball_screw_accuracy.svg"
   xmlns:inkscape="http://www.inkscape.org/namespaces/inkscape"
   xmlns:sodipodi="http://sodipodi.sourceforge.net/DTD/sodipodi-0.dtd"
   xmlns="http://www.w3.org/2000/svg"
   xmlns:svg="http://www.w3.org/2000/svg"><sodipodi:namedview
     id="namedview7"
     pagecolor="#ffffff"
     bordercolor="#666666"
     borderopacity="1.0"
     inkscape:pageshadow="2"
     inkscape:pageopacity="0.0"
     inkscape:pagecheckerboard="0"
     inkscape:document-units="mm"
     showgrid="true"
     inkscape:deskcolor="#d1d1d1"
     inkscape:zoom="1.9433836"
     inkscape:cx="188.33133"
     inkscape:cy="95.194796"
     inkscape:window-width="1920"
     inkscape:window-height="1017"
     inkscape:window-x="-8"
     inkscape:window-y="-8"
     inkscape:window-maximized="1"
     inkscape:current-layer="layer1"><inkscape:grid
       type="xygrid"
       id="grid824"
       units="mm"
       spacingx="1"
       spacingy="1"
       originx="-21"
       originy="-49.986805" /></sodipodi:namedview><defs
     id="defs2"><marker
       style="overflow:visible"
       id="TriangleStart"
       refX="4"
       refY="0"
       orient="auto-start-reverse"
       inkscape:stockid="TriangleStart"
       markerWidth="5.3244081"
       markerHeight="6.155385"
       viewBox="0 0 5.3244081 6.1553851"
       inkscape:isstock="true"
       inkscape:collect="always"
       preserveAspectRatio="xMidYMid"><path
         transform="scale(0.5)"
         style="fill:context-stroke;fill-rule:evenodd;stroke:context-stroke;stroke-width:1pt"
         d="M 5.77,0 -2.88,5 V -5 Z"
         id="path135" /></marker><marker
       style="overflow:visible"
       id="TriangleStart-1"
       refX="4"
       refY="0"
       orient="auto-start-reverse"
       inkscape:stockid="TriangleStart"
       markerWidth="5.3244081"
       markerHeight="6.155385"
       viewBox="0 0 5.3244081 6.1553851"
       inkscape:isstock="true"
       inkscape:collect="always"
       preserveAspectRatio="xMidYMid"><path
         transform="scale(0.5)"
         style="fill:context-stroke;fill-rule:evenodd;stroke:context-stroke;stroke-width:1pt"
         d="M 5.77,0 -2.88,5 V -5 Z"
         id="path135-7" /></marker><marker
       style="overflow:visible"
       id="TriangleStart-1-5"
       refX="4"
       refY="0"
       orient="auto-start-reverse"
       inkscape:stockid="TriangleStart"
       markerWidth="5.3244081"
       markerHeight="6.155385"
       viewBox="0 0 5.3244081 6.1553851"
       inkscape:isstock="true"
       inkscape:collect="always"
       preserveAspectRatio="xMidYMid"><path
         transform="scale(0.5)"
         style="fill:context-stroke;fill-rule:evenodd;stroke:context-stroke;stroke-width:1pt"
         d="M 5.77,0 -2.88,5 V -5 Z"
         id="path135-7-5" /></marker></defs><g
     inkscape:label="Layer 1"
     inkscape:groupmode="layer"
     id="layer1"
     transform="translate(-21.000001,-49.986804)"><path
       style="fill:#333333;stroke:#333333;stroke-width:0.5;stroke-linecap:butt;stroke-linejoin:miter;stroke-dasharray:none;stroke-opacity:1"
       d="m 25,50 v 50"
       id="path282" /><path
       style="fill:#333333;stroke:#333333;stroke-width:0.5;stroke-linecap:butt;stroke-linejoin:miter;stroke-dasharray:none;stroke-opacity:1"
       d="m 130,50 v 50"
       id="path284" /><path
       style="fill:none;stroke:#0658cf;stroke-width:0.25;stroke-linecap:butt;stroke-linejoin:miter;stroke-dasharray:none;stroke-opacity:1"
       d="M 25,63 H 130"
       id="path286" /><path
       style="fill:none;stroke:#28b464;stroke-width:0.25;stroke-linecap:butt;stroke-linejoin:miter;stroke-dasharray:2, 0.5, 0.25, 0.5;stroke-dashoffset:0;stroke-opacity:1"
       d="M 25,63 130,92"
       id="path290" /><path
       style="fill:none;stroke:#000000;stroke-width:0.25;stroke-linecap:butt;stroke-linejoin:miter;stroke-dasharray:none;stroke-opacity:1"
       d="m 98,78 27,7"
       id="path290-0"
       sodipodi:nodetypes="cc" /><path
       style="fill:none;stroke:#000000;stroke-width:0.25;stroke-linecap:butt;stroke-linejoin:miter;stroke-dasharray:none;stroke-opacity:1"
       d="m 65.5,79.5 55,15"
       id="path290-0-5"
       sodipodi:nodetypes="cc" /><path
       style="fill:none;stroke:#ce2a07;stroke-width:0.5;stroke-linecap:butt;stroke-linejoin:miter;stroke-dasharray:none;stroke-opacity:1"
       d="m 25,63 c 1.79728,1.538914 3.849858,2.739661 5.688161,4.225561 3.431147,1.962125 7.85233,2.367463 11.430419,0.551154 2.247485,-0.964847 4.883349,-1.612171 7.247462,-0.672151 1.28204,0.557055 2.14127,1.772225 2.569392,3.06774 0.586879,1.330998 1.994102,2.51558 3.527136,2.170397 2.4273,-0.399357 4.542719,-2.18058 7.087607,-1.925176 1.937899,0.299093 3.500189,1.645138 4.84865,2.978344 1.545882,1.729422 2.5684,3.858527 4.176966,5.539684 1.112163,1.211457 2.292137,2.482948 3.840189,3.121025 1.453861,0.540392 3.114141,0.287173 4.406628,-0.540781 2.477038,-1.107076 5.092916,-1.86161 7.676075,-2.670567 1.15175,-0.38166 2.435473,0.08473 2.915433,1.231025 0.687229,1.160008 2.359065,1.505691 3.437409,0.689208 0.701026,-0.799784 1.654324,-1.811955 2.844349,-1.293944 1.605937,0.766238 2.284191,2.530372 3.145329,3.968658 0.709295,1.355792 1.597885,2.946896 3.238295,3.258979 1.53027,0.281013 2.94897,-0.537197 4.381,-0.927595 1.84606,-0.519824 3.46771,-1.818756 5.44998,-1.809479 1.15975,0.01047 2.22103,0.647062 3.39603,0.572408 1.17106,0.02877 2.29857,-0.47921 3.46411,-0.393435 1.86842,0.448992 2.87914,1.681913 4.22938,2.858945 1,1 1.37542,2.050045 1.88652,2.947101 0.61764,0.923866 1.33614,2.045786 2.53345,2.203446 0.54461,0.02457 1.06218,-0.176308 1.58109,-0.309403"
       id="path355"
       sodipodi:nodetypes="ccccccccccccccccccccccccc" /><path
       style="fill:none;stroke:#000000;stroke-width:0.25;stroke-linecap:butt;stroke-linejoin:miter;stroke-dasharray:none;stroke-opacity:1;marker-start:url(#TriangleStart);marker-end:url(#TriangleStart)"
       d="M 25,55 H 130"
       id="path1185" /><path
       style="fill:none;stroke:#000000;stroke-width:0.25;stroke-linecap:butt;stroke-linejoin:miter;stroke-dasharray:none;stroke-opacity:1;marker-start:url(#TriangleStart-1);marker-end:url(#TriangleStart-1)"
       d="M 105,80 V 90"
       id="path1185-0"
       sodipodi:nodetypes="cc" /><path
       style="fill:none;stroke:#000000;stroke-width:0.25;stroke-linecap:butt;stroke-linejoin:miter;stroke-dasharray:none;stroke-opacity:1;marker-start:url(#TriangleStart-1-5);marker-end:url(#TriangleStart-1-5)"
       d="M 129.23058,63 V 91.787494"
       id="path1185-0-6"
       sodipodi:nodetypes="cc" /><text
       xml:space="preserve"
       style="font-size:2.82222px;line-height:1.25;font-family:'Source Sans Pro';-inkscape-font-specification:'Source Sans Pro';fill:#0658cf;stroke-width:0.264583"
       x="99.086334"
       y="62.009422"
       id="text2553"><tspan
         sodipodi:role="line"
         style="font-size:2.82222px;fill:#0658cf;stroke-width:0.264583"
         x="99.086334"
         y="62.009422"
         id="tspan2555">cumulative nominal lead</tspan></text><text
       xml:space="preserve"
       style="font-size:2.82222px;line-height:1.25;font-family:'Source Sans Pro';-inkscape-font-specification:'Source Sans Pro';fill:#28b464;stroke-width:0.264583"
       x="71.853249"
       y="74.966133"
       id="text2553-4"><tspan
         sodipodi:role="line"
         style="font-size:2.82222px;fill:#28b464;stroke-width:0.264583"
         x="71.853249"
         y="74.966133"
         id="tspan2555-6">actual mean lead</tspan></text><text
       xml:space="preserve"
       style="font-size:2.82222px;line-height:1.25;font-family:'Source Sans Pro';-inkscape-font-specification:'Source Sans Pro';fill:#ce2a07;stroke-width:0.264583"
       x="28.567093"
       y="75.009422"
       id="text2553-4-4"><tspan
         sodipodi:role="line"
         style="font-size:2.82222px;fill:#ce2a07;stroke-width:0.264583"
         x="28.567093"
         y="75.009422"
         id="tspan2555-6-5">cumulative actual lead</tspan></text><text
       xml:space="preserve"
       style="font-size:2.82222px;line-height:1.25;font-family:'Source Sans Pro';-inkscape-font-specification:'Source Sans Pro';stroke-width:0.264583"
       x="67.870178"
       y="54.043289"
       id="text2553-1"><tspan
         sodipodi:role="line"
         style="font-size:2.82222px;stroke-width:0.264583"
         x="67.870178"
         y="54.043289"
         id="tspan2555-4">effective thread length</tspan></text><rect
       style="fill:#ffffff;stroke:none;stroke-width:0.25;stroke-linecap:round;stroke-linejoin:round;stroke-dasharray:1, 1;stroke-dashoffset:0"
       id="rect3717"
       width="11.000001"
       height="1.999999"
       x="107"
       y="87" /><text
       xml:space="preserve"
       style="font-size:2.82222px;line-height:1.25;font-family:'Source Sans Pro';-inkscape-font-specification:'Source Sans Pro';stroke-width:0.264583"
       x="106.96613"
       y="88.95298"
       id="text2553-1-5"><tspan
         sodipodi:role="line"
         style="font-size:2.82222px;stroke-width:0.264583"
         x="106.96613"
         y="88.95298"
         id="tspan2555-4-0">variation</tspan></text><text
       xml:space="preserve"
       style="font-size:2.82222px;line-height:1.05;font-family:'Source Sans Pro';-inkscape-font-specification:'Source Sans Pro';stroke-width:0.264583"
       x="128.21449"
       y="73.0028"
       id="text2553-1-5-5"><tspan
         sodipodi:role="line"
         style="font-size:2.82222px;text-align:end;text-anchor:end;stroke-width:0.264583"
         x="128.21449"
         y="73.0028"
         id="tspan2555-4-0-7">mean</tspan><tspan
         sodipodi:role="line"
         style="font-size:2.82222px;text-align:end;text-anchor:end;stroke-width:0.264583"
         x="128.21449"
         y="75.966133"
         id="tspan3804">deviation</tspan></text><text
       xml:space="preserve"
       style="font-size:4.23333px;line-height:1.25;font-family:'Source Sans Pro';-inkscape-font-specification:'Source Sans Pro';stroke-width:0.264583"
       x="22.082302"
       y="63.751663"
       id="text2553-1-4"><tspan
         sodipodi:role="line"
         style="stroke-width:0.264583"
         x="22.082302"
         y="63.751663"
         id="tspan2555-4-8">0</tspan><tspan
         sodipodi:role="line"
         style="stroke-width:0.264583"
         x="22.082302"
         y="69.043327"
         id="tspan3511" /></text><text
       xml:space="preserve"
       style="font-size:4.23333px;line-height:1.25;font-family:'Source Sans Pro';-inkscape-font-specification:'Source Sans Pro';stroke-width:0.264583"
       x="21.813734"
       y="53.9492"
       id="text2553-1-4-4"><tspan
         sodipodi:role="line"
         style="stroke-width:0.264583"
         x="21.813734"
         y="53.9492"
         id="tspan2555-4-8-7">+</tspan><tspan
         sodipodi:role="line"
         style="stroke-width:0.264583"
         x="21.813734"
         y="59.24086"
         id="tspan3511-0" /></text><text
       xml:space="preserve"
       style="font-size:4.23333px;line-height:1.25;font-family:'Source Sans Pro';-inkscape-font-specification:'Source Sans Pro';stroke-width:0.264583"
       x="21.826433"
       y="98.927101"
       id="text2553-1-4-4-4"><tspan
         sodipodi:role="line"
         style="stroke-width:0.264583"
         x="21.826433"
         y="98.927101"
         id="tspan2555-4-8-7-1">-</tspan><tspan
         sodipodi:role="line"
         style="stroke-width:0.264583"
         x="21.826433"
         y="104.21877"
         id="tspan3511-0-4" /></text><text
       xml:space="preserve"
       style="font-size:2.82222222px;line-height:1.25;font-family:'Source Sans Pro';-inkscape-font-specification:'Source Sans Pro';stroke-width:0.264583"
       x="-87.323715"
       y="24.014132"
       id="text2553-1-8"
       transform="rotate(-90)"><tspan
         sodipodi:role="line"
         style="stroke-width:0.264583;font-size:2.82222222px"
         x="-87.323715"
         y="24.014132"
         id="tspan2555-4-1">deviation</tspan></text></g></svg>
